<svg width="37" height="37" viewBox="0 0 37 37" fill="none" xmlns="http://www.w3.org/2000/svg">
<circle cx="18.0891" cy="18.0892" r="18.0891" fill="#4172B8"/>
<path d="M19.3732 26.703V18.8446H21.9129L22.2931 15.782H19.3732V13.8267C19.3732 12.94 19.6103 12.3357 20.8346 12.3357L22.396 12.335V9.59589C22.1259 9.5587 21.1991 9.47534 20.1208 9.47534C17.8696 9.47534 16.3284 10.9025 16.3284 13.5235V15.7821H13.7822V18.8447H16.3283V26.7031L19.3732 26.703Z" fill="white"/>
</svg>
