<svg width="28" height="28" viewBox="0 0 28 28" fill="none" xmlns="http://www.w3.org/2000/svg">
<path d="M23.5008 25.7211C22.5921 25.8064 21.6445 25.2867 20.7201 25.3642C20.3551 25.3875 20.0055 25.5116 19.6482 25.6125C19.5084 25.6513 19.3686 25.69 19.2366 25.7211C18.6929 25.8374 15.3451 26.0314 14.2266 26.0158C13.1081 26.0236 9.76042 25.8374 9.21671 25.7211C8.7196 25.6125 8.23026 25.403 7.72538 25.3642C6.7933 25.2944 5.85345 25.8142 4.94467 25.7211C4.85923 25.7133 4.77379 25.6823 4.70389 25.6357C4.64175 25.597 4.59514 25.5504 4.54854 25.4961C4.47087 25.3953 4.42426 25.2634 4.43203 25.1238C4.47863 24.2472 3.6384 23.3654 4.18596 20.0365C5.18795 16.8095 3.88316 14.6059 5.24244 11.6271C5.94927 10.0757 7.18856 9.50155 9.11785 8.84537C9.11785 8.84537 10.0913 8.75622 10.8712 7.8949C10.908 7.85421 10.9566 7.80957 11.0032 7.77078C11.0809 7.70097 11.1585 7.63115 11.2362 7.56134C11.2828 7.52255 11.3217 7.48376 11.3683 7.45273C11.3683 7.45273 11.376 7.44498 11.376 7.43722C11.376 7.41395 11.3683 7.3674 11.3527 7.29759C11.3372 7.22002 11.3061 7.12693 11.2673 7.01057C11.0576 6.36672 10.5915 5.20313 10.11 4.64461C9.70605 4.17917 9.27885 3.74477 8.86718 3.28709C8.59532 3.01558 7.81859 2.395 8.17589 1.96835C8.21472 1.92181 8.26909 1.89078 8.32347 1.86751C8.3856 1.84424 8.46328 1.83648 8.53318 1.83648C8.88271 1.84424 9.17787 2.03817 9.48857 2.17004C10.2187 2.48033 11.0576 2.51912 11.811 2.27864C11.8809 2.25537 11.9508 2.2321 12.0207 2.20107C12.0906 2.1778 12.1605 2.14677 12.2304 2.11574C12.3858 2.05368 12.5334 1.98387 12.6809 1.91405C12.8751 1.82872 13.0693 1.74339 13.2713 1.67358C13.4421 1.61152 13.6208 1.56498 13.7994 1.54171C14.4519 1.45638 15.0888 1.66582 15.718 1.76667C16.3083 1.86751 16.9685 1.87527 17.5433 1.69685C17.5899 1.68134 17.6287 1.67358 17.6753 1.65806C18.0249 1.53395 18.3666 1.36329 18.7239 1.2702C18.9414 1.2159 19.1822 1.18487 19.3686 1.30899C19.524 1.40983 19.6094 1.60376 19.6249 1.78994C19.6405 1.97611 19.5939 2.16229 19.5395 2.3407C19.3531 2.96128 19.0579 3.43448 18.7006 3.96197C18.0948 4.86181 17.2947 6.72355 17.1006 7.28207C17.0928 7.3131 17.085 7.33637 17.0773 7.35965C17.0617 7.41395 17.054 7.43722 17.0617 7.44498C17.1316 7.49928 17.2015 7.56134 17.2714 7.62339C17.4423 7.77854 17.6054 7.94144 17.7452 8.08107C18.0249 8.37585 19.4569 9.24642 19.4569 9.24642C21.187 10.0939 21.8851 10.3309 22.592 11.8824C23.9513 14.8612 22.3746 19.3446 23.3766 22.5716C23.6329 23.4017 23.9513 24.2394 23.9979 25.116C24.0213 25.4263 23.796 25.69 23.5008 25.7211Z" fill="#FFCB9B"/>
<path d="M11.3892 6.90133L11.2572 6.99442C11.0475 6.35057 10.5814 5.18698 10.0999 4.62846C9.69596 4.16302 9.26875 3.72861 8.85708 3.27094C8.60853 3.00719 7.8318 2.38661 8.18909 1.95996C8.19686 2.15389 8.26677 2.46418 8.593 2.79774C9.16001 3.39505 10.9232 4.65173 11.3892 6.90133Z" fill="#FFD79A"/>
<g opacity="0.5">
<mask id="mask0" mask-type="alpha" maskUnits="userSpaceOnUse" x="4" y="1" width="21" height="26">
<path d="M23.5013 25.7211C22.5925 25.8064 21.6449 25.2867 20.7206 25.3642C20.3556 25.3875 20.006 25.5116 19.6487 25.6125C19.5089 25.6513 19.3691 25.69 19.2371 25.7211C18.6934 25.8374 15.3456 26.0314 14.2271 26.0158C13.1086 26.0236 9.76091 25.8374 9.2172 25.7211C8.72009 25.6125 8.23075 25.403 7.72587 25.3642C6.79379 25.2944 5.85394 25.8142 4.94516 25.7211C4.85972 25.7133 4.77428 25.6823 4.70437 25.6357C4.64224 25.597 4.59563 25.5504 4.54903 25.4961C4.47135 25.3953 4.42475 25.2634 4.43252 25.1238C4.47912 24.2472 3.63889 23.3654 4.18645 20.0365C5.18844 16.8095 3.88365 14.6059 5.24293 11.6271C5.94976 10.0757 7.18905 9.50155 9.11833 8.84537C9.11833 8.84537 10.0917 8.75622 10.8716 7.8949C10.9085 7.85421 10.9571 7.80957 11.0037 7.77078C11.0814 7.70097 11.159 7.63115 11.2367 7.56134C11.2833 7.52255 11.3221 7.48376 11.3687 7.45273C11.3687 7.45273 11.3765 7.44498 11.3765 7.43722C11.3765 7.41395 11.3688 7.3674 11.3532 7.29759C11.3377 7.22002 11.3066 7.12693 11.2678 7.01057C11.0581 6.36672 10.592 5.20313 10.1104 4.64461C9.70654 4.17917 9.27934 3.74477 8.86767 3.28709C8.59581 3.01558 7.81908 2.395 8.17637 1.96835C8.21521 1.92181 8.26958 1.89078 8.32395 1.86751C8.38609 1.84424 8.46376 1.83648 8.53367 1.83648C8.8832 1.84424 9.17836 2.03817 9.48905 2.17004C10.2192 2.48033 11.0581 2.51912 11.8115 2.27864C11.8814 2.25537 11.9513 2.2321 12.0212 2.20107C12.0911 2.1778 12.161 2.14677 12.2309 2.11574C12.3863 2.05368 12.5339 1.98387 12.6814 1.91405C12.8756 1.82872 13.0698 1.74339 13.2717 1.67358C13.4426 1.61152 13.6213 1.56498 13.7999 1.54171C14.4524 1.45638 15.0893 1.66582 15.7185 1.76667C16.3088 1.86751 16.969 1.87527 17.5438 1.69685C17.5904 1.68134 17.6292 1.67358 17.6758 1.65806C18.0254 1.53395 18.3671 1.36329 18.7244 1.2702C18.9419 1.2159 19.1827 1.18487 19.3691 1.30899C19.5245 1.40983 19.6099 1.60376 19.6254 1.78994C19.641 1.97611 19.5944 2.16229 19.54 2.3407C19.3536 2.96128 19.0584 3.43448 18.7011 3.96197C18.0953 4.86181 17.2952 6.72355 17.101 7.28207C17.0933 7.3131 17.0855 7.33637 17.0777 7.35965C17.0622 7.41395 17.0544 7.43722 17.0622 7.44498C17.1321 7.49928 17.202 7.56134 17.2719 7.62339C17.4428 7.77854 17.6059 7.94144 17.7457 8.08107C18.0254 8.37585 19.4574 9.24642 19.4574 9.24642C21.1875 10.0939 21.8856 10.3309 22.5925 11.8824C23.9517 14.8612 22.3751 19.3446 23.3771 22.5716C23.6334 23.4017 23.9518 24.2394 23.9984 25.116C24.0217 25.4263 23.7965 25.69 23.5013 25.7211Z" fill="#672C2C"/>
</mask>
<g mask="url(#mask0)">
<path opacity="0.7" d="M23.513 25.7124C22.6042 25.7977 21.6566 25.278 20.7323 25.3556C20.3672 25.3788 20.0177 25.5029 19.6604 25.6038C19.2332 24.0523 18.4642 20.6779 18.6195 17.1561C18.837 12.3389 14.9922 7.52163 14.9922 7.52163C15.3573 6.50543 16.0097 4.8764 16.9884 3.28617C17.4544 2.52596 17.5787 2.02173 17.5709 1.70369C17.6175 1.68817 17.6564 1.68041 17.703 1.6649C18.0525 1.54078 18.3943 1.37012 18.7516 1.27704C18.9691 1.22274 19.2099 1.19171 19.3963 1.31582C19.5516 1.41667 19.6371 1.6106 19.6526 1.79677C19.6681 1.98295 19.6215 2.16912 19.5672 2.34754C19.3807 2.96812 19.0856 3.44131 18.7283 3.9688C18.0137 5.03155 17.0428 7.41303 17.0894 7.45181C17.7108 7.95603 20.2761 8.50567 20.2761 8.50567C21.2703 9.73132 22.0084 9.42784 22.7152 10.9793C24.0745 13.9581 23.8977 19.3644 24.8997 22.5915C25.156 23.4215 23.979 24.2463 24.0256 25.1228C24.0334 25.4176 23.8081 25.6814 23.513 25.7124Z" fill="url(#paint0_linear)"/>
</g>
<path opacity="0.5" d="M14.4489 5.62158C14.4489 5.62158 13.8585 7.39799 13.843 8.59261C13.8275 9.77947 13.1284 11.1603 13.1284 11.1603C13.1284 11.1603 13.4935 9.77947 13.276 8.72448C13.0663 7.6695 14.4489 5.62158 14.4489 5.62158Z" fill="black"/>
<path opacity="0.5" d="M8.02894 10.7646C8.02894 10.7646 7.43863 12.5411 7.42309 13.7357C7.40756 14.9225 6.7085 16.3033 6.7085 16.3033C6.7085 16.3033 7.07356 14.9225 6.85608 13.8676C6.64636 12.8126 8.02894 10.7646 8.02894 10.7646Z" fill="black"/>
<path opacity="0.5" d="M18.7635 17.878C18.7635 17.878 18.9362 19.7419 19.4016 20.8423C19.864 21.9355 19.7782 23.4808 19.7782 23.4808C19.7782 23.4808 19.5581 22.0696 18.9353 21.1907C18.3196 20.3087 18.7635 17.878 18.7635 17.878Z" fill="black"/>
<path opacity="0.5" d="M12.9727 6.34272C12.9727 6.34272 12.9183 4.86108 12.5532 3.82937C12.3435 3.2243 12.2192 2.61924 12.2425 2.11501C12.5921 1.96763 12.9338 1.78921 13.2834 1.67285C13.2057 1.81248 13.1513 2.00641 13.1358 2.27792C13.0659 3.28636 13.3377 5.3653 12.9727 6.34272Z" fill="black"/>
</g>
<path opacity="0.5" d="M16.2824 8.25096C16.8029 8.21993 17.3077 8.16563 17.766 8.0803C17.6262 7.93292 17.4708 7.77777 17.2922 7.62262C17.2223 7.56057 17.1524 7.50627 17.0825 7.44421C17.0747 7.43645 17.0825 7.41318 17.098 7.35888L11.3424 7.28906C11.3579 7.35112 11.3657 7.40542 11.3657 7.42869C11.3657 7.43645 11.3657 7.44421 11.3579 7.44421C11.3113 7.48299 11.2725 7.51402 11.2259 7.55281C11.1482 7.62262 11.0706 7.69244 10.9929 7.76226C10.9463 7.80104 10.9074 7.84759 10.8608 7.88637C11.5288 7.99497 13.3852 8.25872 15.2494 8.27423L15.3737 8.94912L15.1717 9.98083L14.9076 10.6092L14.729 10.7255C14.729 10.7255 14.7134 11.0513 14.9775 11.0436C15.2416 11.0358 16.0261 9.87223 15.8475 8.53022L15.7387 8.27423C15.7465 8.27423 15.7465 8.27423 15.7543 8.27423L16.1349 9.02669L16.3057 10.5316C16.3057 10.5316 16.3057 11.3384 16.2747 11.3461C16.2436 11.3539 16.0417 11.7728 16.0417 11.7728C16.0417 11.7728 15.9795 12.1529 16.3213 12.1684C16.663 12.1839 16.9504 11.253 16.6941 9.49212C16.6164 8.94912 16.4611 8.5535 16.2824 8.25096Z" fill="#C49452"/>
<path d="M15.0079 7.46767L11.3494 7.3358L11.365 7.59955C11.365 7.59955 11.0931 7.38234 11.0698 7.12635C11.0698 7.11084 11.0698 7.10308 11.0698 7.08757C11.0698 6.92467 11.2252 6.80831 11.3805 6.83158C11.8077 6.89364 12.9185 7.04102 14.0836 7.11084C14.5341 7.14187 15.0001 7.15738 15.4351 7.14963L15.0079 7.46767Z" fill="#754C24"/>
<path opacity="0.5" d="M15.0079 7.46782L11.3494 7.33595L11.365 7.5997C11.365 7.5997 11.0931 7.38249 11.0698 7.1265C11.132 7.06444 11.2252 6.99463 11.365 6.99463C11.5747 6.99463 13.0971 7.17305 14.0836 7.11099C14.5341 7.14202 15.0001 7.15753 15.4351 7.14977L15.0079 7.46782Z" fill="#754C24"/>
<path d="M17.4476 7.06423C17.4166 7.18059 17.3234 7.23489 17.2379 7.25816C17.1758 7.27367 17.1292 7.28143 17.1292 7.28143L17.1836 7.14956C16.7719 7.27367 16.3525 7.36676 15.9486 7.44433C15.7544 7.48312 15.568 7.51415 15.3815 7.53742C15.3505 7.54518 15.3194 7.54518 15.2883 7.55293C15.1485 7.57621 15.0165 7.59172 14.8844 7.59948C14.2164 7.66929 13.5873 7.70032 13.0358 7.70032C12.228 7.70032 11.5755 7.64602 11.2027 7.60724L11.0474 7.73911C11.0474 7.73911 11.0474 7.48312 11.1173 7.32797C11.1173 7.32022 11.125 7.31246 11.125 7.3047C11.1949 7.14956 11.3891 7.14956 11.3891 7.14956C11.3891 7.14956 13.0358 7.31246 14.8456 7.17283C14.9932 7.16507 15.1485 7.14956 15.2961 7.13404C15.3349 7.13404 15.366 7.12629 15.4048 7.12629C15.5524 7.11077 15.7 7.0875 15.8398 7.07199C16.368 6.99441 16.8884 6.88581 17.3622 6.73067C17.3544 6.71515 17.502 6.85478 17.4476 7.06423Z" fill="#754C24"/>
<path opacity="0.5" d="M15.9483 7.4368C15.7541 7.47559 15.5677 7.50662 15.3813 7.52989C15.3502 7.53765 15.3192 7.53765 15.2881 7.54541V7.12651C15.3269 7.12651 15.358 7.11875 15.3968 7.11875C15.5444 7.10324 15.692 7.07997 15.8318 7.06445C15.8784 7.14978 15.9328 7.28166 15.9483 7.4368Z" fill="#754C24"/>
<path opacity="0.5" d="M17.2457 7.25838C17.1836 7.27389 17.137 7.28165 17.137 7.28165L17.1913 7.14977C15.7233 7.58418 14.2164 7.69278 13.0358 7.69278C12.228 7.69278 11.5755 7.63848 11.2027 7.59969L11.0474 7.73157C11.0474 7.73157 11.0474 7.47558 11.1173 7.32043C11.226 7.30492 11.3814 7.2894 11.6066 7.30492C12.0804 7.34371 15.1174 7.42128 15.6068 7.32819C16.0884 7.2351 17.3544 6.99463 17.3544 6.99463C17.3544 6.99463 17.3544 7.11099 17.2457 7.25838Z" fill="#754C24"/>
<path d="M14.9532 10.7725C14.9143 10.819 14.86 10.8423 14.8056 10.8423C14.7668 10.8423 14.7279 10.8268 14.6969 10.8035C14.6192 10.7414 14.6036 10.6328 14.6658 10.5475C15.4115 9.55459 15.2561 8.6082 15.0852 8.1195C15.0153 7.91005 14.9376 7.78593 14.9376 7.77818C14.8833 7.69285 14.9143 7.58424 14.9998 7.52994C15.0852 7.47564 15.194 7.50667 15.2483 7.592C15.2483 7.59976 15.3804 7.81696 15.4814 8.1738C15.6445 8.77886 15.7144 9.76403 14.9532 10.7725Z" fill="#754C24"/>
<path opacity="0.5" d="M15.4741 8.18118C15.342 8.15015 15.2411 8.09585 15.2411 8.09585C15.1867 8.12688 15.1323 8.13464 15.078 8.13464C15.008 7.92519 14.9304 7.80107 14.9304 7.79331C14.876 7.70798 14.9071 7.59938 14.9925 7.54508C15.078 7.49078 15.1867 7.52181 15.2411 7.60714C15.2488 7.60714 15.3809 7.82434 15.4741 8.18118Z" fill="#754C24"/>
<path d="M16.3281 11.8036C16.3048 11.8812 16.2349 11.9355 16.1572 11.9355C16.1417 11.9355 16.1261 11.9355 16.1106 11.9277C16.0096 11.9044 15.9552 11.8036 15.9785 11.7027C16.4135 10.0737 15.9086 8.82481 15.5358 8.18872C15.3649 7.89394 15.2174 7.73104 15.2174 7.72328C15.1474 7.64571 15.1552 7.53711 15.2329 7.46729C15.3106 7.39748 15.4193 7.40523 15.4892 7.48281C15.5125 7.50608 15.6912 7.71552 15.9009 8.08011C16.3048 8.79378 16.7863 10.1048 16.3281 11.8036Z" fill="#754C24"/>
<path opacity="0.5" d="M15.9014 8.08011C15.8004 8.18871 15.6606 8.20423 15.5441 8.18871C15.3732 7.89394 15.2257 7.73104 15.2257 7.72328C15.1557 7.64571 15.1635 7.53711 15.2412 7.46729C15.3189 7.39748 15.4276 7.40523 15.4975 7.4828C15.513 7.50608 15.6917 7.71552 15.9014 8.08011Z" fill="#754C24"/>
<path d="M17.4626 7.77007L17.2994 7.62269C16.8412 7.6925 16.3674 7.7468 15.8935 7.78559C15.6916 7.8011 15.4896 7.81662 15.2799 7.82437C14.7362 7.8554 14.2003 7.86316 13.6954 7.86316C12.5458 7.86316 11.5594 7.80886 11.0079 7.76232L10.8215 7.93298C10.8215 7.93298 10.8059 7.84765 10.8292 7.75456C10.8448 7.66923 10.8836 7.56839 10.9846 7.50633C11.1477 7.41324 11.3652 7.421 11.3652 7.421C12.2351 7.4753 13.7342 7.53736 15.2799 7.45203C15.4974 7.43651 15.7227 7.42875 15.9402 7.40548C16.3441 7.37445 16.7402 7.32791 17.1286 7.27361C17.1286 7.27361 17.2994 7.25034 17.3926 7.41324C17.4082 7.44427 17.4237 7.46754 17.4315 7.49857C17.4781 7.6382 17.4626 7.77007 17.4626 7.77007Z" fill="#754C24"/>
<path opacity="0.5" d="M15.8934 7.77762C15.6915 7.79314 15.4895 7.80865 15.2798 7.81641V7.45182C15.4973 7.4363 15.7225 7.42855 15.94 7.40527C15.9555 7.52163 15.94 7.64575 15.8934 7.77762Z" fill="#754C24"/>
<path opacity="0.5" d="M17.4626 7.77004L17.2994 7.62265C16.1266 7.80883 14.8294 7.86313 13.6954 7.86313C12.5458 7.86313 11.5594 7.80883 11.0079 7.76228L10.8215 7.93294C10.8215 7.93294 10.8059 7.84761 10.8292 7.75452C10.9302 7.67695 11.07 7.60714 11.2564 7.60714C11.6526 7.61489 14.5653 7.80883 16.3751 7.60714C16.8722 7.55284 17.2062 7.51405 17.4393 7.49854C17.4781 7.63817 17.4626 7.77004 17.4626 7.77004Z" fill="#754C24"/>
<path d="M15.707 7.80132C15.6216 8.02628 15.4818 8.06506 15.3808 8.02628C15.3186 8.00301 15.2643 7.94871 15.241 7.89441C15.1944 7.75478 15.1167 7.23504 15.1167 7.23504C15.1167 7.23504 15.14 7.12644 15.2643 7.05662C15.2953 7.03335 15.3419 7.01784 15.3963 7.01008C15.6449 6.95578 15.8546 7.43673 15.707 7.80132Z" fill="#754C24"/>
<path opacity="0.5" d="M15.5128 7.60735C15.4818 7.80904 15.4274 7.94091 15.3808 8.01848C15.3187 7.99521 15.2643 7.94091 15.241 7.88661C15.1944 7.74698 15.1167 7.22725 15.1167 7.22725C15.1167 7.22725 15.14 7.11864 15.2643 7.04883C15.3808 7.14967 15.5517 7.33585 15.5128 7.60735Z" fill="#754C24"/>
<path d="M15.2023 7.97177C15.1246 8.01831 15.0392 8.0028 14.9693 7.97177C14.8761 7.92523 14.8062 7.8399 14.8062 7.8399L15.0159 7.83214C15.1246 7.65372 15.0159 7.46755 15.0159 7.46755L14.8372 7.47531C14.8528 7.28138 15.179 7.0952 15.311 7.31241C15.3732 7.43652 15.4586 7.81662 15.2023 7.97177Z" fill="#754C24"/>
<path opacity="0.5" d="M15.0857 7.88676C15.0624 7.94106 15.0158 7.96433 14.9615 7.97209C14.8682 7.92555 14.7983 7.84022 14.7983 7.84022L15.0081 7.83246C15.1168 7.65404 15.0081 7.46787 15.0081 7.46787L14.8294 7.47562C14.8294 7.47562 14.9615 7.37478 15.0624 7.39029C15.1634 7.42132 15.1789 7.70059 15.0857 7.88676Z" fill="#754C24"/>
<g opacity="0.5">
<path opacity="0.5" d="M9.54307 22.6312C8.7963 22.6312 8.12421 22.3329 7.69482 21.8481C7.97486 22.5939 8.68429 23.116 9.54307 23.116C10.4018 23.116 11.1113 22.5939 11.3913 21.8481C10.9619 22.3329 10.2898 22.6312 9.54307 22.6312Z" fill="black"/>
<path opacity="0.5" d="M14.5852 24.1592C13.8385 24.0474 13.2224 23.6558 12.8677 23.1338C13.0357 23.9169 13.6891 24.5321 14.5106 24.644C15.3507 24.7559 16.1348 24.3271 16.5081 23.6372C16.0228 24.0474 15.332 24.2525 14.5852 24.1592Z" fill="black"/>
<path opacity="0.5" d="M12.977 20.002C12.2489 19.8155 11.6888 19.368 11.3901 18.79C11.4835 19.5731 12.0436 20.263 12.865 20.4681C13.6864 20.6732 14.5079 20.3376 14.9559 19.685C14.4145 20.0579 13.7051 20.1884 12.977 20.002Z" fill="black"/>
</g>
<defs>
<linearGradient id="paint0_linear" x1="13.8064" y1="4.15106" x2="24.4903" y2="18.8563" gradientUnits="userSpaceOnUse">
<stop stop-color="#653A00"/>
<stop offset="1" stop-color="#AE6C10" stop-opacity="0"/>
</linearGradient>
</defs>
</svg>
