<svg width="110" height="105" viewBox="0 0 110 105" fill="none" xmlns="http://www.w3.org/2000/svg">
<path d="M23.3436 18.143C24.4037 15.1584 25.6943 11.531 26.57 8.54639C28.0449 11.1177 29.4738 15.2502 29.8886 18.2348C27.5379 16.9491 23.9889 14.3778 21.8687 12.4952C24.8646 11.8524 28.5059 12.082 31.7323 12.2656C29.9808 14.1941 25.6943 17.0869 23.3436 18.143Z" fill="#EFD444"/>
<path d="M99.8165 68.7244C100.395 67.0959 101.099 65.1167 101.577 63.4883C102.382 64.8913 103.161 67.146 103.388 68.7745C102.105 68.073 100.169 66.67 99.0117 65.6428C100.646 65.2921 102.633 65.4174 104.393 65.5176C103.438 66.5698 101.099 68.1481 99.8165 68.7244Z" fill="#EFD444"/>
<path d="M0.80475 71.2361C1.38317 69.6076 2.08732 67.6284 2.56514 66C3.36989 67.403 4.1495 69.6577 4.37584 71.2862C3.09326 70.5847 1.15683 69.1817 0 68.1546C1.63465 67.8038 3.62138 67.9291 5.38177 68.0293C4.42613 69.0815 2.08732 70.6599 0.80475 71.2361Z" fill="#EFD444"/>
<path d="M82.8048 79.2361C83.3832 77.6076 84.0873 75.6284 84.5651 74C85.3699 75.403 86.1495 77.6577 86.3758 79.2862C85.0933 78.5847 83.1568 77.1817 82 76.1546C83.6347 75.8038 85.6214 75.9291 87.3818 76.0293C86.4261 77.0815 84.0873 78.6599 82.8048 79.2361Z" fill="#EFD444"/>
<path d="M64.7969 90.1024C65.9935 94.1975 71.5873 95.4806 71.3925 90.0205C71.3925 88.2733 68.9991 85.7344 68.4147 88.4644C68.0251 90.6211 71.1977 91.5767 72.784 91.0033C74.3703 90.6211 76.374 87.7 75.5669 85.9255C73.9806 83.0043 71.7821 86.0347 73.2849 87.973C76.2905 91.877 81.9399 89.0377 78.5447 82.8951" stroke="#DE3A9F" stroke-width="0.5" stroke-miterlimit="10"/>
<path d="M97.6353 27.8254C102.457 28.1604 106.078 22.636 100.215 20.6785C98.3637 19.9848 94.7065 21.5584 97.3624 23.2727C99.4898 24.5492 101.785 21.5064 101.818 19.5677C102.055 17.7049 99.77 14.3838 97.5638 14.5498C93.8279 15.1012 96.1496 18.6758 98.8105 17.8243C104.161 16.1322 103.437 8.91113 95.5572 10.1348" stroke="#DE3A9F" stroke-width="0.5" stroke-miterlimit="10"/>
<path d="M14.925 31.4189C4.56737 37.6821 18.6811 43.8684 17.5049 37.6052C14.5077 34.3008 8.0958 47.096 19.5537 45.1364C22.7786 44.5984 19.8572 39.7954 16.86 44.0221C15.0768 46.5196 15.4941 50.7463 21.868 50.2084" stroke="#DE3A9F" stroke-width="0.5" stroke-miterlimit="10"/>
<path d="M15.3169 90.1458C15.3169 90.1458 61.0805 75.203 78.7554 67.9695C69.297 55.6916 54.3927 39.0355 43.8833 28.8516L15.3169 90.1458Z" fill="#DE3A9F"/>
<g opacity="0.1">
<path d="M24.3945 87.1001C25.8276 86.6243 27.2607 86.1484 28.8849 85.5773C25.8276 83.6738 23.248 81.104 20.6684 78.5342L18.9487 82.2461C20.764 83.8641 22.4837 85.6725 24.3945 87.1001Z" fill="black"/>
<path d="M38.7281 82.3411C40.1612 81.8653 41.5943 81.3894 43.123 80.8183C37.0084 76.7257 30.7983 72.8234 26.1169 67.0176L23.9194 71.6813C27.9321 76.2498 32.9957 80.2472 38.7281 82.3411Z" fill="black"/>
<path d="M53.5349 77.201C55.3502 76.5347 57.1654 75.9636 58.8851 75.2974C52.9617 72.1566 46.5605 69.2061 41.7835 64.352C39.4905 62.0677 37.9619 59.4028 35.86 56.833C34.8091 55.5005 33.6626 54.2632 32.6116 53.0259L30.2231 58.2606C36.7199 66.0652 44.172 72.918 53.5349 77.201Z" fill="black"/>
<path d="M69.0137 71.6813C70.1602 71.2054 71.3067 70.8247 72.4532 70.444C64.2367 66.6369 56.8802 61.2118 50.8611 54.4542C46.8485 49.9808 41.9759 45.1268 38.8231 39.7017L36.7212 44.175C39.6829 49.5049 43.3135 54.5493 47.8038 58.7371C53.9184 64.4478 61.3705 68.4452 69.0137 71.6813Z" fill="black"/>
</g>
<g opacity="0.3">
<path d="M66.6237 73.0133C59.5537 70.6339 53.1525 66.3509 47.5157 61.592C42.1654 57.0235 37.1973 51.6936 33.8534 45.507C33.1846 44.2697 31.2738 45.4118 31.9426 46.6492C35.4776 53.1212 40.6367 58.7367 46.2736 63.4955C52.1016 68.4448 58.7894 72.7278 66.0504 75.2976C67.388 75.5831 67.9612 73.4892 66.6237 73.0133Z" fill="white"/>
<path d="M50.5717 78.7237C45.8902 76.9154 41.5909 73.8697 37.7693 70.5385C33.9477 67.2073 30.5083 63.4954 27.3555 59.4979C26.4956 58.3558 24.967 59.9738 25.8268 61.0207C32.1325 69.1108 40.2534 77.0105 49.9985 80.8176C51.2405 81.3887 51.8137 79.1996 50.5717 78.7237Z" fill="white"/>
<path d="M36.3371 84.53C33.3754 83.1023 30.6047 81.1988 28.0251 79.1049C25.7322 77.2013 23.5347 75.2026 21.5284 73.0135C20.573 71.9666 19.0443 73.4894 19.9997 74.5364C22.1016 76.8206 24.299 78.9145 26.6875 80.8181C29.3627 83.0071 32.1333 85.0059 35.2862 86.4335C36.5282 87.0046 37.6747 85.101 36.3371 84.53Z" fill="white"/>
</g>
<path d="M78.7545 67.9692C88.9773 57.4997 66.0477 22.9503 49.997 24.4731C28.2139 26.8525 67.6719 74.7268 78.7545 67.9692Z" fill="#AA0A6D"/>
<path d="M65.5752 52.7413L92.8041 38.9406C94.5238 38.084 96.7212 38.7502 97.5811 40.4634C98.441 42.1766 97.7722 44.3657 96.0525 45.2223C95.7658 45.3175 95.5748 45.4127 95.2881 45.5078L65.5752 52.7413Z" fill="#EFD444"/>
<path d="M61.5645 44.0797L74.4624 26.2815C75.6088 24.6635 77.8063 24.378 79.4304 25.5201C81.0546 26.6622 81.3412 28.8513 80.1947 30.4693C80.0037 30.7549 79.7171 31.0404 79.4304 31.2308L61.5645 44.0797Z" fill="#EFD444"/>
<path d="M55.1592 42.0812L60.0317 13.9087C60.3183 12.0052 62.2291 10.6727 64.1399 11.0534C66.0507 11.3389 67.3883 13.2425 67.0061 15.146C66.9106 15.4316 66.9106 15.7171 66.7195 16.0026L55.1592 42.0812Z" fill="#EFD444"/>
</svg>
