<?xml version="1.0" encoding="UTF-8"?>
<svg width="24px" height="24px" viewBox="0 0 24 24" version="1.1" xmlns="http://www.w3.org/2000/svg" xmlns:xlink="http://www.w3.org/1999/xlink">
    <!-- Generator: Sketch 57.1 (83088) - https://sketch.com -->
    <title>ic_coin_heo_vang</title>
    <desc>Created with Sketch.</desc>
    <defs>
        <path d="M12.0140211,23.2981263 C18.6104211,23.2981263 23.9577474,18.1156421 23.9577474,11.7228 C23.9577474,5.32989474 18.6104211,0.147410526 12.0140211,0.147410526 C5.41770316,0.147410526 0.0703136842,5.32989474 0.0703136842,11.7228 C0.0703136842,18.1156421 5.41770316,23.2981263 12.0140211,23.2981263 Z" id="path-1"></path>
        <linearGradient x1="49.9999603%" y1="-28.1609267%" x2="49.9999603%" y2="100%" id="linearGradient-3">
            <stop stop-color="#FEFFEF" offset="0%"></stop>
            <stop stop-color="#FFC539" offset="100%"></stop>
        </linearGradient>
        <linearGradient x1="5.26798996%" y1="-17.3885709%" x2="87.4734961%" y2="100.968806%" id="linearGradient-4">
            <stop stop-color="#CB9F3D" offset="0%"></stop>
            <stop stop-color="#FFF172" offset="0%"></stop>
            <stop stop-color="#FFA224" offset="56.14%"></stop>
            <stop stop-color="#FE9F01" offset="97.08%"></stop>
        </linearGradient>
        <linearGradient x1="70.0929025%" y1="19.4937073%" x2="121.417788%" y2="115.447959%" id="linearGradient-5">
            <stop stop-color="#FFFFFF" offset="0%"></stop>
            <stop stop-color="#FFE1AD" offset="97.08%"></stop>
        </linearGradient>
    </defs>
    <g id="Page-1" stroke="none" stroke-width="1" fill="none" fill-rule="evenodd">
        <g id="3a_so-luong-quyen-gop-" transform="translate(-196.000000, -315.000000)">
            <g id="Group-16" transform="translate(0.000000, 254.000000)">
                <g id="Group-13">
                    <g id="Group-14" transform="translate(145.000000, 59.000000)">
                        <g id="Group-12" transform="translate(49.000000, 0.000000)">
                            <g id="ic_coin_heo_vang">
                                <g id="Heo-full">
                                    <g transform="translate(2.000000, 2.000000)">
                                        <path d="M12.0140211,23.9297053 C18.6104211,23.9297053 23.9577474,18.7472211 23.9577474,12.3543789 C23.9577474,5.96147368 18.6104211,0.778989474 12.0140211,0.778989474 C5.41770316,0.778989474 0.0703136842,5.96147368 0.0703136842,12.3543789 C0.0703136842,18.7472211 5.41770316,23.9297053 12.0140211,23.9297053 Z" id="Path" fill="#FF9C50" fill-rule="nonzero"></path>
                                        <g id="Clipped" transform="translate(0.000000, 0.631579)">
                                            <mask id="mask-2" fill="white">
                                                <use xlink:href="#path-1"></use>
                                            </mask>
                                            <g id="Path"></g>
                                            <g id="Group" mask="url(#mask-2)" fill="#E26200" fill-rule="nonzero">
                                                <g transform="translate(2.526316, 15.789474)" id="Path">
                                                    <polygon points="13.0576421 3.49338947 12.3188842 3.49338947 12.3188842 7.27313684 13.0576421 7.27313684"></polygon>
                                                    <polygon points="15.5210526 3.49338947 14.7822947 3.49338947 14.7822947 7.27313684 15.5210526 7.27313684"></polygon>
                                                    <polygon points="17.7359368 2.07606316 16.9971158 2.07606316 16.9971158 5.85574737 17.7359368 5.85574737"></polygon>
                                                    <polygon points="19.7065263 0.186252632 18.9677053 0.186252632 18.9677053 3.96593684 19.7065263 3.96593684"></polygon>
                                                    <polygon points="6.65576842 4.43646316 7.39452632 4.43646316 7.39452632 8.21614737 6.65576842 8.21614737"></polygon>
                                                    <polygon points="9.60947368 4.43646316 10.3482947 4.43646316 10.3482947 8.21614737 9.60947368 8.21614737"></polygon>
                                                    <polygon points="4.19235789 4.43646316 4.93111579 4.43646316 4.93111579 8.21614737 4.19235789 8.21614737"></polygon>
                                                    <polygon points="1.97626105 3.01913684 2.71505053 3.01913684 2.71505053 6.79882105 1.97626105 6.79882105"></polygon>
                                                    <polygon points="0.00689684211 1.12995789 0.74568 1.12995789 0.74568 4.90964211 0.00689684211 4.90964211"></polygon>
                                                </g>
                                            </g>
                                        </g>
                                        <path d="M12.0140211,22.7485895 C18.6104211,22.7485895 23.9577474,17.6718316 23.9577474,11.4094105 C23.9577474,5.14700211 18.6104211,0.0703136842 12.0140211,0.0703136842 C5.41770316,0.0703136842 0.0703136842,5.14700211 0.0703136842,11.4094105 C0.0703136842,17.6718316 5.41770316,22.7485895 12.0140211,22.7485895 Z" id="Path" fill="url(#linearGradient-3)" fill-rule="nonzero"></path>
                                        <path d="M12.0145895,21.8036211 C18.0668842,21.8036211 22.9732421,17.0970947 22.9732421,11.2913053 C22.9732421,5.48550316 18.0668842,0.778989474 12.0145895,0.778989474 C5.96229474,0.778989474 1.05592421,5.48550316 1.05592421,11.2913053 C1.05592421,17.0970947 5.96229474,21.8036211 12.0145895,21.8036211 Z" id="Path" fill="url(#linearGradient-4)" fill-rule="nonzero"></path>
                                        <path d="M12.2052,17.8032632 C15.7998947,17.8032632 18.7138737,15.1050947 18.7138737,11.7767368 C18.7138737,8.44837895 15.7998947,5.75021053 12.2052,5.75021053 C8.61056842,5.75021053 5.69652632,8.44837895 5.69652632,11.7767368 C5.69652632,15.1050947 8.61056842,17.8032632 12.2052,17.8032632 Z" id="Path" fill="#CB7000" fill-rule="nonzero"></path>
                                        <path d="M12.3159789,18.5282526 C15.7632632,18.5282526 18.5578737,15.8551579 18.5578737,12.5577474 C18.5578737,9.26027368 15.7632632,6.58717895 12.3159789,6.58717895 C8.86863158,6.58717895 6.07402105,9.26027368 6.07402105,12.5577474 C6.07402105,15.8551579 8.86863158,18.5282526 12.3159789,18.5282526 Z" id="Path" fill="#FFD97A" fill-rule="nonzero"></path>
                                        <path d="M12.3159789,17.9855368 C15.7632632,17.9855368 18.5578737,15.3123789 18.5578737,12.0149684 C18.5578737,8.71749474 15.7632632,6.0444 12.3159789,6.0444 C8.86863158,6.0444 6.07402105,8.71749474 6.07402105,12.0149684 C6.07402105,15.3123789 8.86863158,17.9855368 12.3159789,17.9855368 Z" id="Path" fill="#FFC236" fill-rule="nonzero"></path>
                                        <path d="M12.3158526,15.5429053 C13.9645895,15.5429053 15.3011368,14.5100842 15.3011368,13.2360632 C15.3011368,11.9620421 13.9645895,10.9292842 12.3158526,10.9292842 C10.6671158,10.9292842 9.33056842,11.9620421 9.33056842,13.2360632 C9.33056842,14.5100842 10.6671158,15.5429053 12.3158526,15.5429053 Z" id="Path" fill="#CB7000" fill-rule="nonzero"></path>
                                        <path d="M12.3158526,15.8142316 C13.9645895,15.8142316 15.3011368,14.8422316 15.3011368,13.6431789 C15.3011368,12.4440632 13.9645895,11.4720632 12.3158526,11.4720632 C10.6671158,11.4720632 9.33056842,12.4440632 9.33056842,13.6431789 C9.33056842,14.8422316 10.6671158,15.8142316 12.3158526,15.8142316 Z" id="Path" fill="#F6A028" fill-rule="nonzero"></path>
                                        <path d="M11.5016842,13.1002737 C11.8014316,13.1002737 12.0444632,13.3433053 12.0444632,13.6430526 C12.0444632,13.9428632 11.8014316,14.1858316 11.5016842,14.1858316 C11.2018737,14.1858316 10.9589053,13.9428632 10.9589053,13.6430526 C10.9589053,13.3433053 11.2018737,13.1002737 11.5016842,13.1002737 Z" id="Path" fill="#CB7000" fill-rule="nonzero"></path>
                                        <path d="M13.1299579,13.1002737 C13.4297053,13.1002737 13.6727368,13.3433053 13.6727368,13.6430526 C13.6727368,13.9428632 13.4297053,14.1858316 13.1299579,14.1858316 C12.8302105,14.1858316 12.5871789,13.9428632 12.5871789,13.6430526 C12.5871789,13.3433053 12.8302105,13.1002737 13.1299579,13.1002737 Z" id="Path" fill="#CB7000" fill-rule="nonzero"></path>
                                        <path d="M10.9277053,10.4918371 C10.9277053,10.9059986 10.7031158,11.2417899 10.4261053,11.2417899 C10.1490947,11.2417899 9.92456842,10.9059986 9.92456842,10.4918371 C9.92456842,10.0776757 10.1490947,9.74197895 10.4261053,9.74197895 C10.7031158,9.74197895 10.9277053,10.0776757 10.9277053,10.4918371 Z M14.7591789,10.4920262 C14.7591789,10.9061877 14.5346526,11.2419789 14.2576421,11.2419789 C13.9806316,11.2419789 13.7560421,10.9061877 13.7560421,10.4920262 C13.7560421,10.0778647 13.9806316,9.74216802 14.2576421,9.74216802 C14.5346526,9.74216802 14.7591789,10.0778647 14.7591789,10.4920262 Z" id="Shape" fill="#CB7000"></path>
                                        <path d="M9.13610526,5.69229474 C8.30829474,5.65041474 6.14406316,5.71244211 5.04634105,7.35934737 C4.97180842,7.4712 4.96906105,7.61671579 5.03944421,7.73115789 C5.28121895,8.12450526 5.97397895,9.03738947 7.47006316,9.63467368 C7.48976842,9.64256842 7.50966316,9.65033684 7.52968421,9.65816842 C9.20450526,10.3081263 9.43414737,7.10412632 9.46458947,6.04818947 C9.46995789,5.85997895 9.32425263,5.70183158 9.13610526,5.69229474 Z" id="Path" fill="#CB7000" fill-rule="nonzero"></path>
                                        <path d="M9.05172632,6.05197895 C8.34915789,6.01275789 6.51208421,6.07086316 5.58035368,7.61197895 C5.51708842,7.71663158 5.51475789,7.8528 5.57449895,7.95991579 C5.77970526,8.328 6.36770526,9.18227368 7.63762105,9.74122105 C7.65435789,9.74861053 7.67122105,9.75587368 7.68821053,9.7632 C9.10983158,10.3714105 9.30473684,7.37311579 9.33056842,6.38501053 C9.33517895,6.20886316 9.21145263,6.06088421 9.05172632,6.05197895 Z" id="Path" fill="#F6A028" fill-rule="nonzero"></path>
                                        <path d="M15.4951579,5.69229474 C16.3229053,5.65041474 18.4872,5.71244211 19.5848842,7.35934737 C19.6594105,7.4712 19.6621895,7.61671579 19.5917684,7.73115789 C19.35,8.12450526 18.6572842,9.03745263 17.1612,9.63467368 C17.1414947,9.64256842 17.1216,9.65033684 17.1015789,9.65816842 C15.4266947,10.3081263 15.1971158,7.10412632 15.1666737,6.04818947 C15.1613053,5.85997895 15.3070105,5.70183158 15.4951579,5.69229474 Z" id="Path" fill="#CB7000" fill-rule="nonzero"></path>
                                        <path d="M16.1226947,6.05197895 C16.8253263,6.01275789 18.6623368,6.07086316 19.5941053,7.61197895 C19.6573263,7.71663158 19.6596632,7.8528 19.5999158,7.95991579 C19.3947158,8.328 18.8067158,9.18233684 17.5368,9.74122105 C17.5200632,9.74861053 17.5032,9.75587368 17.4862105,9.7632 C16.0645895,10.3714105 15.8696842,7.37311579 15.8438526,6.38501053 C15.8393053,6.20886316 15.9630316,6.06088421 16.1226947,6.05197895 Z" id="Path" fill="#F6A028" fill-rule="nonzero"></path>
                                        <path d="M19.8233053,3.91573895 C17.8356632,1.97946947 15.0712421,0.778989474 12.0145895,0.778989474 C5.96229474,0.778989474 1.05592421,5.48550316 1.05592421,11.2913053 C1.05592421,13.0885895 1.52610316,14.7805263 2.35490526,16.2600632 L19.8233053,3.91573895 Z" id="Path" fill="url(#linearGradient-5)" opacity="0.2"></path>
                                    </g>
                                </g>
                            </g>
                        </g>
                    </g>
                </g>
            </g>
        </g>
    </g>
</svg>