<svg xmlns="http://www.w3.org/2000/svg" width="10" height="10" viewBox="0 0 10 10">
    <g fill="none" fill-rule="evenodd">
        <path d="M0 0H10V10H0z" transform="rotate(-180 5 5)"/>
        <path fill="#DF99C5" d="M8.542 1.668H6.009c-.23 0-.417.187-.417.417v2.533c0 .23.187.417.417.417H7.22c-.016.663-.17 1.194-.462 1.593-.23.315-.578.576-1.044.782-.214.094-.306.347-.206.56l.3.632c.096.204.335.293.542.204.552-.239 1.018-.54 1.398-.907.463-.447.78-.952.952-1.516.172-.563.258-1.331.258-2.306V2.085c0-.23-.187-.417-.417-.417zM1.717 8.804c.545-.237 1.008-.539 1.39-.905.468-.447.787-.95.96-1.51.17-.559.257-1.33.257-2.312V2.085c0-.23-.187-.417-.417-.417H1.374c-.23 0-.417.187-.417.417v2.533c0 .23.187.417.417.417h1.212c-.016.663-.17 1.194-.462 1.593-.23.315-.578.576-1.044.782-.214.094-.306.347-.206.56l.299.63c.096.204.337.294.544.204z" transform="rotate(-180 5 5)"/>
    </g>
</svg>
