<svg xmlns="http://www.w3.org/2000/svg" width="20" height="20" viewBox="0 0 20 20">
    <g fill="none" fill-rule="evenodd">
        <path d="M0 0h20v20H0z"/>
        <path fill="#AA7726" fill-rule="nonzero" d="M17.028 1.667a2 2 0 0 1 2 2v9.194a2 2 0 0 1-2 2h-4.25l-1.19 2.378a1 1 0 0 1-.335.382l-.111.065A1 1 0 0 1 9.8 17.24L8.61 14.86H3.668a2 2 0 0 1-2-2V3.667a2 2 0 0 1 2-2h13.36z" opacity=".68"/>
        <path fill="#FFC00F" fill-rule="nonzero" d="M16.194 1.667a2 2 0 0 1 2 2v9.194a2 2 0 0 1-2 2h-4.25l-1.188 2.378a1 1 0 0 1-.336.382l-.112.065a1 1 0 0 1-1.341-.447l-1.19-2.378H2.833a2 2 0 0 1-2-2V3.667a2 2 0 0 1 2-2h13.361z"/>
        <path fill="#AA7726" fill-rule="nonzero" d="M14.013 4.867a2.445 2.445 0 0 0-3.735.37 2.445 2.445 0 0 0-3.735-.37 2.375 2.375 0 0 0 0 3.387l3.032 2.996a1 1 0 0 0 1.406 0l3.032-2.996a2.375 2.375 0 0 0 0-3.387z" opacity=".3"/>
        <path fill="#FFF" fill-rule="nonzero" d="M13.18 4.867a2.445 2.445 0 0 0-3.735.37 2.445 2.445 0 0 0-3.735-.37 2.375 2.375 0 0 0 0 3.387l3.032 2.996a1 1 0 0 0 1.406 0l3.032-2.996a2.375 2.375 0 0 0 0-3.387z"/>
    </g>
</svg>
