<?xml version="1.0" encoding="utf-8"?>
<!-- Generator: Adobe Illustrator 23.0.1, SVG Export Plug-In . SVG Version: 6.00 Build 0)  -->
<svg version="1.1" id="Layer_1" xmlns="http://www.w3.org/2000/svg" xmlns:xlink="http://www.w3.org/1999/xlink" x="0px" y="0px"
	 viewBox="0 0 345.1 512" style="enable-background:new 0 0 345.1 512;" xml:space="preserve">
<g>
	<title>Asset 1</title>
	<path d="M279.4,23.7H30.8C14.5,23.7,0,38.2,0,56.3v401.8c0,16.3,14.5,30.8,30.8,30.8H76h23.8L76,449.4H34.5V96.2h243.1v152l34.5,22
		V56.3C312,38.2,297.5,23.7,279.4,23.7z M226.8,77.1H86.1c-8.1,0-13.5-5.4-13.5-13.5c0-8.1,5.4-13.5,13.5-13.5h140.8
		c5.4,0,10.8,5.4,10.8,13.5C237.7,71.7,232.3,77.1,226.8,77.1z"/>
	<path d="M189.4,200.7c-14.4,0-25.9,11.6-25.9,25.9v155.7l-17.3-34.6c-14.2-26.3-28.1-23.6-38.9-17.3c-12.5,8.3-17.2,17-8.6,38.9
		c19.6,48.2,49.8,105.6,82.2,142.7h116.7c41-30.4,74-175,17.3-181.6c-5.2,0-13.5,0.8-17.3,4.3c0-17.3-15.1-21.7-21.6-21.6
		c-7.5,0.1-13,4.3-17.3,13c0-17.3-14.1-21.6-21.6-21.6c-8.3,0-17.9,5.2-21.6,13v-90.8C215.4,212.3,203.8,200.7,189.4,200.7z"/>
</g>
</svg>
