<?xml version="1.0" encoding="utf-8"?>
<!-- Generator: Adobe Illustrator 23.0.1, SVG Export Plug-In . SVG Version: 6.00 Build 0)  -->
<svg version="1.1" id="Layer_1" xmlns="http://www.w3.org/2000/svg" xmlns:xlink="http://www.w3.org/1999/xlink" x="0px" y="0px"
	 viewBox="0 0 414.7 512" style="enable-background:new 0 0 414.7 512;" xml:space="preserve">
<title>Asset 1</title>
<g>
	<path d="M80,241.8v-55.7c0-10.9-6.3-20.4-15.5-24.9c4-75.3,66.5-135.4,142.9-135.4s138.9,60.1,142.8,135.4
		c-9.2,4.6-15.5,14-15.5,24.9v55.7c0,3.7,0.7,7.1,2,10.4c-16.2,11.6-39.9,19.9-66.5,22.2c-3-4.6-8.2-7.6-14-7.6H234
		c-9.2,0-16.7,7.5-16.7,16.7c0,9.2,7.5,16.7,16.7,16.7h22.2c6.5,0,11.9-3.7,14.7-9c30.9-2.4,57.8-11.9,76.7-25.8
		c4.3,2.8,9.5,4.4,15,4.4h1.4l27.9-83.6c0-11.1-6.5-20.7-15.9-25.1C371.9,71.6,297.8,0,207.3,0S42.8,71.6,38.8,161
		c-9.4,4.4-15.9,14-15.9,25.1l27.9,83.6C50.7,269.8,80,257.3,80,241.8z"/>
	<path d="M218.9,240.9h72.8c9.5-17.4,15.1-37,15.1-56.3c0-54.9-44.6-99.5-99.5-99.5c-54.9,0-99.5,44.6-99.5,99.5
		c0,47,32.7,96.4,76.6,109.6c-2.1-4.7-3.4-10-3.4-15.5C181.1,257.9,198.1,240.9,218.9,240.9z"/>
	<path d="M414.2,466.3L414.2,466.3c-0.9-22.8-2.1-45.7-9.3-67.6c-2-6.2-4.3-12.9-8.3-17.8c-4.3-5.2-10.2-10.6-16.3-12.2
		c-14.9-4-29.8-7.9-44.7-11.7c-22.7-5.8-45.4-11.3-68.1-17c-1.3-0.3-2.7-0.2-5-0.4c-0.3,1-0.6,2.1-0.9,3.1
		c-4,14.6-7.7,29.3-12.1,43.7c-5.4,17.3-11.4,34.4-17.3,51.4c-0.7,1.9-1.5,3.7-2.5,5.5c-1.1-7.8-2.4-18-3.7-28
		c-2.4-18.7-4.7-36.9-4.7-37.5c0.9-2.1,1.8-4.2,2.7-6.1c0.1-0.3,0.2-0.6,0.4-0.9c0.5-1.2,1-2.5,1.5-3.6c0.3-0.4,0.5-1,0.8-1.4
		c0.8-1.6,1.7-3.3,1.7-5.3c0-1.7-0.7-3.3-1.2-4.6l-0.3-0.6c-0.1-0.3-0.1-0.4-0.3-0.7c-0.1-0.4-0.4-0.9-0.7-1.4l-0.1-0.3
		c-0.1-0.1-0.3-0.3-0.3-0.4c-0.3-0.6-0.7-1-1.1-1.2c-0.7-0.5-1.5-0.7-2-0.8h-1.4c-0.4-0.3-1-0.3-1.2-0.3c-1.9-0.1-6.5-0.1-12.5-0.1
		c-6,0-10.7,0-12.6,0.1c-0.4,0-0.8,0-1.2,0.3h-1.2c-0.9,0.2-2.1,0.5-3.2,2c-0.1,0.1-0.1,0.3-0.2,0.6l-0.2,0.1c0,0.1-0.1,0.2-0.2,0.3
		c-1.1,1.1-1.7,2.5-1.7,4.3c-0.2,0.8-0.5,1.7-0.5,2.6c0,2,0.9,3.7,1.7,5.3c0,0.1,0.2,0.3,0.2,0.5c0.2,0.3,0.4,0.7,0.6,1
		c0.5,1.1,1.1,2.4,1.6,3.6c0.1,0.2,0.2,0.4,0.3,0.6c0.9,2.1,1.9,4.2,2.8,6.4c0,0.4-0.5,4.5-1.3,10.7c-1.9,14.2-5.2,39.3-7.2,54.8
		c-0.9-1.8-1.8-3.6-2.5-5.5c-6-17.1-12-34.1-17.3-51.4c-4.5-14.4-8.2-29.1-12.2-43.8c-0.3-1-0.5-2-0.8-3c-2.3,0.2-3.7,0.1-5,0.4
		c-20.3,5.1-40.6,10.1-60.9,15.2c0,0,0,0,0,0c-17.3,4.3-34.6,8.8-51.9,13.5c-5.8,1.6-11.4,6.4-15.5,11.3c-0.3,0.3-0.5,0.6-0.8,0.9
		c-4,4.9-6.3,11.5-8.3,17.8c-6.4,19.5-8.1,39.7-9,60c-0.1,2.6-0.2,5.1-0.3,7.7c-0.6,14.5-2.7,11.6,11.4,17.6c3.5,1.5,7,2.8,10.6,3.9
		c25.5,8.3,51.4,13.8,77.6,17.4c25.6,3.6,51.5,5.4,77.5,6.4c5,0.2,44.7,0.5,44.7,0.5c5-0.2,9.9-0.3,14.9-0.5
		c41-1.5,81.9-5.2,121.8-14.5c11.2-2.6,22.3-5.7,33.4-9.2c3.6-1.2,7.1-2.5,10.6-3.9C416.9,477.9,414.8,480.7,414.2,466.3z"/>
</g>
</svg>
