<svg xmlns="http://www.w3.org/2000/svg" xmlns:xlink="http://www.w3.org/1999/xlink" width="343" height="118" viewBox="0 0 343 118">
    <defs>
        <path id="prefix__d" d="M9.758 0.113L0.343 35.113 73.343 15.876 57.417 0.113z"/>
        <path id="prefix__g" d="M120 0L120 70 0 70z"/>
        <linearGradient id="prefix__b" x1="94.605%" x2="2.562%" y1="45.838%" y2="56.701%">
            <stop offset="0%" stop-color="#F5F3FE"/>
            <stop offset="100%" stop-color="#EEDFF4"/>
        </linearGradient>
        <filter id="prefix__f">
            <feColorMatrix in="SourceGraphic" values="0 0 0 0 1.000000 0 0 0 0 0.839216 0 0 0 0 0.905882 0 0 0 1.000000 0"/>
        </filter>
        <rect id="prefix__a" width="343" height="118" x="0" y="0" rx="8"/>
    </defs>
    <g fill="none" fill-rule="evenodd">
        <mask id="prefix__c" fill="#fff">
            <use xlink:href="#prefix__a"/>
        </mask>
        <g opacity=".154">
            <use fill="#FFF" fill-opacity=".1" xlink:href="#prefix__a"/>
            <use fill="url(#prefix__b)" xlink:href="#prefix__a"/>
        </g>
        <g mask="url(#prefix__c)">
            <g transform="translate(0 4)">
                <mask id="prefix__e" fill="#fff">
                    <use xlink:href="#prefix__d"/>
                </mask>
                <path fill="#FFD6E7" d="M.392 29.519c.277.3.274.777 0 1.072-.27.294-.713.3-.989 0-.269-.29-.272-.78 0-1.072.273-.3.721-.293.99 0zm5.791-.176c.27.294.27.774 0 1.068-.274.295-.717.295-.987.002-.272-.293-.272-.773.003-1.07.27-.296.713-.296.984 0zm5.792-.18c.27.294.273.777 0 1.074-.27.294-.716.29-.987-.003-.275-.297-.275-.777-.003-1.071.274-.299.716-.298.99 0zm5.79-.182c.276.3.27.78 0 1.074-.274.297-.714.3-.99 0-.271-.293-.271-.774.004-1.07.27-.296.715-.298.985-.004zm5.79-.175c.27.294.271.774 0 1.067-.274.297-.716.297-.986.004-.273-.294-.276-.777 0-1.074.27-.295.715-.292.986.003zm5.793-.18c.27.293.27.78.003 1.07-.277.3-.723.297-.993.004-.275-.296-.275-.777.004-1.077.266-.292.712-.295.986.002zm5.787-.179c.273.297.277.774.003 1.072-.273.296-.716.296-.989 0-.272-.294-.272-.775.003-1.072.272-.298.713-.294.983 0zm5.793-.179c.271.294.27.774 0 1.068-.273.297-.716.298-.986.004-.273-.294-.275-.778 0-1.074.27-.295.716-.292.986.002zm5.794-.18c.27.294.27.775 0 1.068-.274.297-.716.297-.987.004-.276-.297-.275-.778 0-1.074.27-.295.713-.295.987.003zm5.79-.18c.272.296.272.776 0 1.074-.271.292-.717.296-.99-.001-.273-.293-.27-.777.002-1.07.274-.3.717-.298.987-.003zm5.79-.177c.273.296.276.774.002 1.07-.271.294-.716.297-.99 0-.274-.296-.271-.78 0-1.073.274-.299.713-.295.987.003zm5.792-.179c.27.294.27.774-.003 1.07-.27.295-.716.298-.987.004-.275-.297-.275-.784-.003-1.078.274-.297.72-.294.993.004zm5.787-.178c.274.296.277.773.003 1.07-.27.294-.716.297-.99 0-.271-.294-.269-.776.004-1.07.273-.299.713-.295.983 0zM3.368 26.289c.276.3.273.777.003 1.072-.274.296-.713.3-.99 0-.269-.291-.276-.778 0-1.075.271-.294.719-.288.987.003zm5.793-.18c.27.294.271.774-.003 1.07-.271.295-.713.295-.984 0-.272-.293-.272-.772 0-1.066.274-.298.716-.298.987-.004zm5.793-.178c.27.294.27.78 0 1.074-.274.297-.719.294-.99 0-.275-.298-.275-.777 0-1.074.27-.295.716-.298.99 0zm5.787-.18c.276.301.273.777.003 1.071-.273.298-.714.3-.99 0-.271-.294-.271-.773.004-1.07.27-.295.713-.295.983 0zm5.793-.178c.271.293.268.777 0 1.068-.276.3-.719.3-.989.006-.272-.294-.275-.777.003-1.078.267-.29.716-.29.986.004zm5.791-.176c.27.294.275.774.003 1.07-.274.298-.72.295-.99.002-.276-.298-.276-.778 0-1.075.274-.298.714-.294.987.003zm5.789-.183c.273.297.273.777.003 1.071-.274.297-.716.297-.99 0-.272-.294-.272-.774.003-1.071.27-.294.713-.294.984 0zm5.793-.179c.27.294.27.774 0 1.068-.274.297-.716.298-.987.004-.272-.294-.275-.778 0-1.074.27-.295.717-.292.987.002zm5.793-.179c.27.294.27.774-.004 1.07-.27.294-.715.298-.985.004-.275-.297-.272-.78-.001-1.074.274-.298.716-.298.99 0zm5.787-.179c.274.298.277.774.003 1.072-.27.293-.716.297-.99-.001-.271-.293-.269-.777.004-1.07.273-.298.712-.294.983 0zm5.793-.179c.274.297.274.777 0 1.075-.27.294-.716.296-.989 0-.276-.298-.272-.78 0-1.075.273-.297.716-.297.989 0zm5.79-.176c.271.294.274.771 0 1.068-.27.294-.716.297-.986.003-.275-.297-.275-.784-.003-1.078.273-.297.716-.29.99.007zm5.791-.181c.273.296.273.776.003 1.07-.274.297-.716.297-.99 0-.272-.294-.272-.774.003-1.07.27-.295.713-.295.984 0zM.556 23.238c.272.294.272.774 0 1.068-.273.297-.715.297-.986.003-.275-.297-.275-.777 0-1.073.27-.295.713-.295.986.002zm5.791-.181c.277.3.273.777 0 1.073-.27.294-.71.298-.986-.002-.27-.292-.276-.778-.004-1.072.273-.298.723-.291.99.001zm5.793-.18c.27.295.268.778-.003 1.071-.273.298-.717.298-.986.004-.272-.294-.272-.774.003-1.07.27-.295.716-.3.986-.004zm5.79-.175c.271.294.274.777.004 1.07-.274.298-.72.294-.99 0-.276-.296-.276-.776 0-1.074.27-.295.713-.294.985.004zm5.79-.183c.277.3.27.78.003 1.071-.276.3-.715.304-.992.004-.273-.294-.273-.774.006-1.075.267-.29.713-.294.984 0zm5.79-.176c.27.294.273.77 0 1.068-.273.297-.717.297-.987.003-.272-.294-.276-.777 0-1.074.274-.298.716-.292.987.003zm5.793-.179c.27.294.274.778.003 1.07-.274.298-.72.295-.99.002-.275-.298-.275-.778 0-1.075.27-.294.713-.294.987.003zm5.79-.181c.274.296.274.776.003 1.07-.274.297-.716.297-.99 0-.271-.294-.271-.774.003-1.07.271-.295.713-.295.984 0zm5.793-.18c.27.293.27.773-.003 1.07-.27.294-.716.297-.986.004-.272-.294-.272-.78 0-1.074.273-.298.719-.295.989 0zm5.79-.175c.27.293.274.77 0 1.067-.27.293-.716.297-.985.003-.276-.297-.273-.78-.001-1.073.273-.299.713-.296.986.003zm5.791-.184c.273.298.273.778 0 1.075-.27.293-.717.296-.99 0-.273-.294-.27-.777.003-1.07.274-.3.716-.299.987-.005zm5.789-.175c.273.297.276.774.003 1.071-.27.294-.716.297-.99 0-.276-.297-.272-.78 0-1.074.274-.298.714-.295.987.003zm5.793-.18c.27.295.27.775 0 1.069-.274.296-.716.297-.987.003-.275-.297-.278-.78-.003-1.078.271-.294.716-.29.99.007zM3.535 20.007c.271.294.271.774-.002 1.07-.27.295-.713.295-.983 0-.275-.296-.275-.776-.003-1.07.273-.297.716-.297.988 0zm5.792-.182c.276.3.27.78 0 1.073-.274.298-.713.3-.99 0-.27-.29-.276-.776 0-1.074.27-.294.722-.291.99.001zm5.789-.176c.27.294.27.774 0 1.068-.274.297-.717.297-.987.003-.272-.294-.272-.774.003-1.07.27-.295.713-.295.984 0zm5.793-.178c.27.294.27.78.003 1.07-.277.3-.722.298-.993.004-.275-.298-.275-.777.003-1.078.267-.291.713-.295.987.004zm5.787-.18c.277.3.277.774.003 1.071-.274.297-.713.3-.99 0-.272-.294-.272-.774.004-1.07.273-.3.712-.295.983-.001zm5.793-.178c.271.293.271.773 0 1.066-.273.298-.716.298-.986.004-.272-.294-.276-.777 0-1.074.27-.295.716-.291.986.004zm5.793-.18c.27.293.274.777.003 1.07-.273.297-.72.295-.99 0-.274-.296-.274-.777 0-1.074.27-.294.714-.294.987.003zm5.79-.182c.274.297.274.777 0 1.074-.27.293-.716.297-.989 0-.273-.294-.27-.777.003-1.071.273-.298.716-.298.986-.003zm5.791-.176c.27.294.273.77 0 1.068-.27.294-.716.296-.987.002-.272-.293-.272-.779 0-1.073.274-.298.716-.292.987.003zm5.792-.18c.27.294.27.774-.003 1.07-.27.295-.716.299-.987.005-.276-.298-.272-.78 0-1.075.274-.297.716-.297.99 0zm5.787-.178c.273.297.277.774.003 1.07-.27.294-.716.297-.99 0-.271-.293-.269-.776.004-1.07.273-.299.713-.295.983 0zm5.793-.18c.274.297.274.777.004 1.071-.275.297-.717.297-.99 0-.276-.297-.275-.776 0-1.074.27-.294.713-.295.986.004zm5.793-.18c.271.295.27.775 0 1.069-.276.3-.719.3-.99.006-.275-.297-.277-.78 0-1.08.271-.295.717-.292.99.006zM.722 16.953c.27.294.273.778 0 1.074-.27.294-.716.291-.987-.004-.272-.292-.272-.772 0-1.066.274-.299.716-.298.987-.004zm5.793-.178c.27.293.267.777-.003 1.07-.274.298-.716.298-.987.004-.276-.297-.276-.777 0-1.074.271-.294.716-.298.99 0zm5.787-.18c.277.301.273.777.003 1.071-.274.298-.713.3-.99 0-.269-.29-.275-.776 0-1.074.271-.294.72-.287.987.004zm5.793-.179c.271.294.268.778 0 1.068-.277.3-.719.3-.99.007-.272-.295-.272-.774.007-1.075.267-.29.713-.294.983 0zm5.79-.175c.27.293.277.773.003 1.071-.273.297-.719.294-.989 0-.276-.298-.276-.778 0-1.074.273-.299.713-.295.986.003zm5.79-.182c.277.3.273.777.003 1.07-.273.298-.714.301-.989 0-.272-.293-.272-.773.003-1.07.27-.294.713-.294.983 0zm5.794-.18c.27.294.27.774 0 1.068-.273.297-.717.297-.987.003-.273-.294-.276-.777 0-1.074.27-.295.716-.291.987.004zm5.792-.178c.27.293.273.777 0 1.073-.271.294-.719.294-.99 0-.275-.296-.272-.78 0-1.073.274-.299.716-.299.99 0zm5.787-.18c.272.297.276.774.003 1.071-.27.293-.716.297-.99 0-.271-.294-.269-.777.003-1.071.274-.298.713-.294.984 0zm5.793-.179c.271.294.271.774-.003 1.07-.271.295-.716.298-.987.004-.271-.293-.271-.78 0-1.074.275-.297.72-.295.99 0zm5.79-.175c.271.293.274.77 0 1.067-.27.294-.716.297-.986.004-.276-.298-.272-.78 0-1.075.273-.297.713-.295.986.004zm5.79-.183c.274.297.274.778.003 1.07-.272.298-.716.298-.989 0-.272-.292-.272-.773.003-1.07.27-.295.714-.295.983 0zm5.793-.179c.274.297.274.777.004 1.071-.276.3-.72.3-.993.004-.275-.298-.275-.778.003-1.078.27-.294.714-.295.986.003zM3.701 13.72c.271.295.271.78 0 1.074-.274.298-.719.294-.99 0-.272-.294-.272-.774.003-1.07.27-.295.716-.298.987-.004zm5.79-.176c.27.294.27.774 0 1.067-.273.298-.716.298-.987.004-.275-.297-.275-.777.001-1.074.27-.294.713-.294.986.003zm5.79-.182c.277.3.27.78.003 1.07-.276.301-.716.305-.992.004-.27-.29-.275-.777.003-1.077.267-.292.72-.288.986.003zm5.79-.175c.27.293.274.77 0 1.067-.273.297-.716.297-.986.003-.272-.293-.272-.773.003-1.07.274-.299.713-.295.983 0zm5.793-.18c.27.293.273.777.003 1.07-.274.298-.72.295-.99 0-.276-.296-.276-.777 0-1.073.27-.295.714-.295.987.002zm5.79-.182c.276.3.273.777.003 1.07-.274.298-.714.301-.99 0-.272-.293-.272-.773.003-1.07.27-.295.713-.295.984 0zm5.793-.178c.271.293.271.774-.003 1.07-.27.294-.716.297-.987.003s-.271-.78 0-1.073c.274-.299.72-.295.99 0zm5.79-.177c.271.294.277.774.003 1.07-.27.295-.72.295-.99 0-.275-.296-.271-.78 0-1.073.274-.298.714-.294.987.003zm5.79-.182c.273.297.273.777 0 1.074-.27.294-.717.296-.99 0-.272-.294-.268-.777.004-1.07.273-.3.716-.298.986-.004zm5.79-.176c.27.294.273.77 0 1.067-.27.294-.716.297-.986.003-.272-.293-.272-.78 0-1.074.273-.297.716-.29.986.004zm5.794-.179c.27.293.27.773 0 1.067-.274.297-.717.298-.987.004-.276-.298-.276-.778 0-1.074.27-.295.713-.295.987.003zm5.789-.182c.273.297.273.777.003 1.07-.276.3-.72.3-.993.004-.273-.294-.273-.774.006-1.074.27-.295.713-.295.984 0zM.887 10.668c.277.3.27.78 0 1.073-.273.298-.713.3-.99 0-.272-.293-.275-.777 0-1.074.27-.294.72-.294.99 0zm5.79-.177c.27.294.273.777.003 1.07-.273.298-.719.294-.989 0-.273-.293-.273-.773.003-1.07.27-.295.713-.294.983 0zm5.794-.179c.27.294.267.777 0 1.068-.277.3-.72.3-.99.006-.276-.297-.275-.777.003-1.078.267-.29.713-.294.987.004zm5.786-.18c.276.301.276.775.003 1.071-.274.297-.713.3-.99 0-.27-.29-.275-.776 0-1.074.273-.298.72-.288.987.004zm5.793-.178c.27.293.27.774 0 1.068-.273.297-.717.297-.987.003-.271-.294-.271-.774.003-1.07.27-.296.713-.296.984 0zm5.793-.179c.271.294.274.777.003 1.07-.274.297-.72.295-.99 0-.275-.296-.275-.777 0-1.073.27-.295.713-.295.987.003zm5.79-.183c.277.3.273.777 0 1.074-.27.293-.713.3-.99 0-.272-.293-.268-.777.004-1.07.273-.299.716-.299.986-.004zm5.79-.174c.27.293.274.77 0 1.066-.27.294-.716.297-.986.004-.272-.294-.272-.78 0-1.074.273-.299.716-.292.986.004zm5.794-.181c.27.294.273.777 0 1.074-.27.294-.72.294-.99 0-.275-.296-.273-.78 0-1.074.273-.298.716-.298.99 0zm5.786-.179c.274.297.277.774.004 1.07-.27.295-.717.298-.99 0-.273-.292-.27-.776.003-1.07.274-.298.714-.295.983 0zm5.793-.178c.27.294.27.774 0 1.067-.273.297-.716.297-.987.003-.272-.294-.275-.776 0-1.074.271-.294.716-.291.987.004zm5.793-.18c.27.294.27.774 0 1.067-.277.3-.719.302-.99.008-.276-.298-.274-.778.004-1.078.27-.294.712-.295.986.003zm5.79-.182c.274.297.271.78 0 1.074-.273.297-.716.297-.99 0-.272-.293-.272-.773.004-1.07.27-.295.715-.299.986-.004zM3.863 7.438c.276.3.273.777.003 1.07-.274.297-.713.3-.99 0-.273-.293-.276-.777 0-1.073.27-.295.716-.292.987.002zm5.793-.18c.27.295.27.781.003 1.071-.277.3-.722.298-.993.004-.273-.294-.273-.774.006-1.074.267-.291.713-.295.984 0zm5.79-.176c.27.294.273.77 0 1.068-.274.297-.716.297-.987.003-.275-.296-.274-.777 0-1.074.274-.298.713-.295.987.003zm5.79-.181c.277.3.273.776.003 1.07-.274.297-.713.3-.99 0-.268-.29-.274-.777 0-1.074.271-.294.72-.288.987.004zm5.793-.179c.27.293.27.774 0 1.068-.273.297-.717.297-.986.003-.272-.294-.272-.774.003-1.07.27-.296.713-.296.983 0zm5.793-.18c.271.295.274.777 0 1.075-.27.293-.719.293-.989-.001-.275-.297-.273-.78 0-1.073.273-.299.716-.299.99 0zm5.787-.18c.277.301.277.775.004 1.072-.27.294-.713.3-.99 0-.273-.294-.27-.776.003-1.07.274-.299.713-.295.983-.001zm5.794-.178c.27.293.27.773-.003 1.07-.27.295-.716.298-.987.004-.273-.294-.273-.78 0-1.075.274-.297.72-.293.99.001zm5.789-.175c.27.293.277.773.003 1.07-.27.294-.719.294-.99 0-.275-.297-.271-.78 0-1.074.274-.298.713-.295.987.004zm5.79-.182c.274.296.274.777.003 1.07-.273.298-.716.298-.99 0-.272-.293-.272-.774.004-1.07.27-.295.713-.295.983 0zm5.793-.18c.271.294.271.774 0 1.067-.277.3-.719.3-.99.007-.272-.295-.274-.778.004-1.078.27-.294.716-.291.986.004zm5.793-.179c.271.294.268.777-.003 1.07-.273.297-.716.298-.986.004-.276-.297-.275-.777 0-1.074.27-.295.716-.298.99 0zM1.052 4.388c.273.297.27.773 0 1.067-.274.297-.713.3-.987.003-.275-.297-.275-.777 0-1.074.271-.294.713-.294.987.003zm5.79-.184c.277.3.27.782.003 1.072-.277.3-.716.303-.993.003-.271-.293-.275-.777.003-1.077.268-.292.717-.292.987.002zm5.79-.174c.27.293.276.773.003 1.07-.273.297-.72.294-.99 0-.272-.294-.272-.774.004-1.07.273-.299.713-.295.983 0zm5.793-.18c.27.295.27.775 0 1.068-.273.298-.716.298-.986.004-.276-.297-.275-.777 0-1.075.27-.294.713-.294.986.003zm5.79-.182c.277.3.273.776.004 1.07-.274.297-.713.3-.99.001-.27-.291-.275-.778 0-1.075.27-.294.72-.288.986.004zm5.794-.179c.27.294.27.774-.003 1.07-.27.294-.716.297-.987.004-.273-.294-.27-.777.003-1.07.274-.299.716-.299.987-.004zm5.789-.177c.27.294.276.774.003 1.072-.27.293-.719.293-.99-.001-.275-.297-.271-.78 0-1.073.274-.299.713-.295.987.002zm5.79-.18c.277.299.274.776 0 1.072-.271.294-.713.3-.99 0-.271-.293-.268-.776.003-1.07.275-.298.716-.298.987-.003zm5.79-.177c.27.294.274.771 0 1.068-.27.294-.716.297-.987.003-.272-.294-.272-.78 0-1.075.274-.297.717-.29.988.004zm5.793-.18c.27.295.273.777.003 1.071-.273.297-.72.294-.989 0-.276-.297-.276-.776 0-1.074.27-.294.713-.294.986.004zm5.79-.181c.274.296.274.777.003 1.07-.276.3-.72.3-.992.004-.273-.294-.273-.774.006-1.074.27-.295.714-.295.983 0zm5.794-.179c.27.294.267.777-.004 1.07-.273.298-.716.298-.986.004-.273-.294-.275-.776 0-1.074.27-.295.718-.295.99 0zm5.792-.18c.27.294.267.777-.003 1.07-.273.297-.716.297-.987.004-.276-.297-.276-.777 0-1.074.271-.295.716-.298.99 0zM4.031 1.155c.274.296.267.777 0 1.067-.276.3-.716.303-.99.007-.274-.297-.274-.778.004-1.077.267-.292.713-.296.986.002zm5.787-.18c.277.301.277.775.003 1.071-.273.298-.713.3-.99 0-.271-.293-.274-.776 0-1.074.274-.297.717-.291.987.004zm5.793-.179c.271.294.274.778.004 1.071-.274.298-.72.294-.99 0-.273-.293-.273-.774.002-1.07.271-.295.714-.295.984 0zm5.793-.178c.27.294.27.774 0 1.067-.273.297-.717.297-.987.004-.276-.297-.276-.777 0-1.075.27-.294.714-.294.987.004zm5.79-.182c.277.3.274.776 0 1.074-.271.294-.713.3-.99 0-.268-.291-.272-.78 0-1.074.274-.298.722-.291.99 0zm5.79-.176c.27.293.274.77 0 1.067-.27.294-.716.296-.987.003-.272-.294-.268-.777.003-1.07.274-.299.713-.295.984 0zm5.793-.18c.27.295.273.778 0 1.074-.27.294-.72.294-.99 0-.274-.296-.272-.78 0-1.074.273-.297.717-.297.99 0zm5.787-.18c.276.301.276.775.003 1.071-.27.294-.713.3-.99 0-.272-.293-.268-.776.004-1.07.273-.298.713-.295.983 0zm5.794-.178c.27.294.27.774 0 1.068-.274.296-.717.296-.987.003-.273-.294-.275-.777 0-1.075.27-.294.716-.29.987.004zm5.792-.178c.27.293.273.776.003 1.07-.277.3-.723.298-.993.004-.275-.297-.275-.778.003-1.078.27-.294.714-.294.987.004zm5.79-.184c.273.297.27.78 0 1.075-.273.296-.717.296-.99 0-.273-.294-.273-.774.003-1.07.271-.296.716-.3.987-.005zm5.793-.178c.271.294.267.777-.003 1.07-.274.298-.716.298-.987.004s-.274-.776 0-1.074c.271-.295.72-.295.99 0zM1.217-1.898c.271.293.271.78.004 1.07-.277.3-.723.297-.993.003-.273-.293-.272-.773.006-1.074.267-.29.713-.295.983 0zm5.791-.176c.273.297.272.77 0 1.067-.274.298-.714.302-.987.004-.276-.297-.275-.777 0-1.074.273-.298.713-.295.987.003zm5.79-.183c.275.3.272.778.002 1.072-.273.296-.713.3-.99 0-.273-.294-.275-.778 0-1.075.27-.294.717-.292.987.003zm5.792-.179c.27.294.273.778.003 1.07-.274.298-.719.295-.99 0-.272-.292-.272-.773.003-1.07.27-.295.713-.295.984 0zm5.793-.179c.271.294.271.774-.003 1.07-.271.294-.716.297-.987.003-.274-.296-.272-.78 0-1.073.274-.299.716-.299.99 0zm5.787-.178c.276.3.276.772.003 1.07-.27.294-.713.3-.99 0-.268-.29-.272-.78 0-1.074.274-.298.72-.289.987.004zm5.793-.179c.27.293.27.774-.003 1.07-.27.294-.716.297-.986.003-.273-.294-.27-.776.003-1.07.273-.298.716-.298.986-.003zm5.79-.177c.271.294.277.774.004 1.07-.27.294-.72.294-.99 0-.275-.296-.273-.78 0-1.074.273-.297.713-.295.986.004zm5.79-.182c.276.3.273.777.003 1.07-.273.298-.713.3-.99 0-.273-.293-.272-.773.003-1.07.271-.294.714-.295.984 0zm5.793-.179c.27.294.27.774 0 1.068-.276.3-.72.3-.99.007-.273-.295-.275-.777.003-1.077.271-.295.716-.292.987.002zm5.793-.18c.271.295.271.781 0 1.075-.274.297-.719.294-.99 0-.274-.297-.274-.777 0-1.074.271-.295.717-.298.99 0zm5.79-.182c.273.298.27.78 0 1.075-.273.297-.716.296-.99 0-.27-.294-.272-.774.004-1.071.27-.295.716-.298.986-.004zm5.793-.18c.271.295.264.781-.006 1.075-.27.294-.713.294-.983 0-.272-.294-.275-.777-.003-1.07.27-.295.72-.299.992-.004zM4.192-5.127c.271.294.277.774.004 1.07-.274.298-.72.294-.99 0-.272-.293-.271-.774.003-1.07.274-.298.713-.295.983 0zm5.794-.179c.274.297.27.774 0 1.067-.274.298-.713.302-.987.004-.275-.297-.274-.777 0-1.074.271-.294.713-.295.987.003zm5.79-.182c.276.3.274.778.003 1.072-.273.296-.713.3-.99 0-.272-.294-.274-.778 0-1.075.27-.294.717-.292.987.003zm5.793-.18c.27.295.274.777 0 1.075-.27.294-.72.294-.99 0-.271-.294-.268-.778.004-1.07.273-.3.716-.3.986-.004zm5.79-.175c.27.294.274.77 0 1.067-.27.294-.716.298-.986.004-.275-.298-.273-.78 0-1.074.274-.298.713-.295.986.003zm5.79-.183c.277.3.274.777 0 1.074-.27.294-.712.301-.989 0-.27-.29-.272-.78 0-1.074.274-.298.722-.29.99 0zm5.79-.175c.27.294.273.77 0 1.068-.27.293-.716.296-.987.003-.273-.295-.268-.777.003-1.071.274-.298.714-.295.984 0zm5.793-.179c.27.294.274.778.003 1.07-.273.298-.719.295-.99 0-.274-.296-.274-.776 0-1.074.271-.293.713-.293.987.004zm5.79-.183c.277.3.274.777.003 1.071-.277.3-.716.303-.993.003-.271-.294-.271-.774.007-1.074.27-.294.713-.295.983 0zm5.793-.179c.27.294.268.778-.003 1.072-.273.296-.716.296-.986.002-.273-.293-.275-.776 0-1.074.27-.295.719-.295.989 0zm5.793-.18c.271.295.271.781 0 1.075-.273.297-.719.294-.989 0-.275-.297-.275-.778 0-1.074.27-.295.717-.298.99 0zm5.791-.181c.273.297.267.784-.003 1.078-.27.293-.713.293-.987-.004-.272-.294-.273-.774 0-1.067.27-.295.72-.301.99-.007zM1.38-8.181c.274.296.277.773.003 1.071-.274.297-.716.297-.99 0C.12-7.404.12-7.885.395-8.181c.274-.298.713-.295.984 0zm5.793-.179c.27.294.274.778.003 1.07-.273.298-.72.295-.99 0-.272-.292-.27-.772.004-1.07.27-.294.713-.295.983 0zm5.793-.18c.274.297.27.774 0 1.068-.273.297-.713.3-.986.004-.276-.298-.275-.778 0-1.075.27-.294.713-.295.986.003zm5.79-.182c.277.3.274.778 0 1.074-.27.294-.712.3-.989 0-.272-.294-.272-.78 0-1.074.274-.298.72-.294.99 0zm5.79-.176c.27.294.276.774.003 1.07-.27.295-.72.295-.99 0-.272-.293-.268-.777.003-1.07.274-.298.714-.294.984 0zm5.793-.178c.27.294.27.773-.003 1.07-.27.294-.716.297-.987.003-.275-.296-.27-.78 0-1.073.274-.299.717-.299.99 0z" mask="url(#prefix__e)"/>
            </g>
        </g>
        <path fill="#FFD6E7" d="M262.106 0c-.001 8.879-7.204 16.074-16.09 16.074-8.9 0-16.126-7.195-16.128-16.074H209c.002 20.43 16.556 37 37.016 37C266.444 37 282.998 20.43 283 0h-20.894z" mask="url(#prefix__c)"/>
        <g filter="url(#prefix__f)">
            <g mask="url(#prefix__c)">
                <g transform="translate(219 44)">
                    <mask id="prefix__h" fill="#fff">
                        <use xlink:href="#prefix__g"/>
                    </mask>
                    <path fill="#FFD6E7" d="M115.998 64c1.098 0 2.002.906 2.002 2.002 0 1.092-.904 1.998-2.002 1.998-1.106 0-1.998-.906-1.998-1.998 0-1.096.892-2.002 1.998-2.002zm-8.987 0c1.092 0 1.989.906 1.989 2.002 0 1.092-.897 1.998-1.989 1.998-1.12 0-2.011-.906-2.011-1.998 0-1.096.892-2.002 2.011-2.002zm-9.006 0c1.096 0 1.995.906 1.995 2.002 0 1.092-.9 1.998-1.995 1.998C96.897 68 96 67.094 96 66.002c0-1.096.897-2.002 2.005-2.002zm-9 0c1.11 0 1.995.906 1.995 2.002C91 67.094 90.115 68 89.005 68 87.907 68 87 67.094 87 66.002c0-1.096.907-2.002 2.005-2.002zM80 64C81.11 64 82 64.906 82 66.002 82 67.094 81.11 68 80.001 68 78.905 68 78 67.094 78 66.002c0-1.096.905-2.002 2.001-2.002zm-8.996 0c1.11 0 1.995.906 1.995 2.002C73 67.094 72.115 68 71.005 68 69.907 68 69 67.094 69 66.002c0-1.096.907-2.002 2.005-2.002zM62 64C63.11 64 64 64.906 64 66.002 64 67.094 63.11 68 62.001 68 60.905 68 60 67.094 60 66.002c0-1.096.905-2.002 2.001-2.002zm-8.996 0c1.098 0 1.995.906 1.995 2.002C55 67.094 54.103 68 53.005 68 51.895 68 51 67.094 51 66.002c0-1.096.894-2.002 2.005-2.002zm-9.001 0c1.099 0 1.996.906 1.996 2.002C46 67.094 45.103 68 44.004 68 42.892 68 42 67.094 42 66.002c0-1.096.892-2.002 2.004-2.002zm-9 0c1.11 0 1.996.906 1.996 2.002C37 67.094 36.115 68 35.004 68 33.892 68 33 67.094 33 66.002c0-1.096.892-2.002 2.004-2.002zm-8.993 0c1.083 0 1.989.906 1.989 2.002C28 67.094 27.094 68 26.011 68 24.891 68 24 67.094 24 66.002c0-1.096.892-2.002 2.011-2.002zm-9.006 0c1.098 0 1.995.906 1.995 2.002C19 67.094 18.103 68 17.005 68 15.895 68 15 67.094 15 66.002c0-1.096.894-2.002 2.005-2.002zM8 64c1.096 0 2 .906 2 2.002C10 67.094 9.096 68 8 68c-1.105 0-2-.906-2-1.998C6 64.906 6.895 64 8 64zm81.005-9c1.11 0 1.995.906 1.995 2.002 0 1.12-.885 1.998-1.995 1.998C87.907 59 87 58.121 87 57.002c0-1.096.907-2.002 2.005-2.002zm-36 0c1.098 0 1.995.906 1.995 2.002 0 1.12-.897 1.998-1.995 1.998-1.11 0-2.005-.879-2.005-1.998 0-1.096.894-2.002 2.005-2.002zm62.993 0c1.098 0 2.002.906 2.002 2.002 0 1.12-.904 1.998-2.002 1.998-1.106 0-1.998-.879-1.998-1.998 0-1.096.892-2.002 1.998-2.002zm-71.994 0c1.099 0 1.996.906 1.996 2.002 0 1.12-.897 1.998-1.996 1.998C42.892 59 42 58.121 42 57.002c0-1.096.892-2.002 2.004-2.002zM80 55C81.11 55 82 55.906 82 57.002c0 1.12-.89 1.998-1.999 1.998C78.905 59 78 58.121 78 57.002c0-1.096.905-2.002 2.001-2.002zm-44.997 0c1.11 0 1.996.906 1.996 2.002 0 1.12-.885 1.998-1.996 1.998C33.892 59 33 58.121 33 57.002c0-1.096.892-2.002 2.004-2.002zm72.007 0c1.092 0 1.989.906 1.989 2.002 0 1.12-.897 1.998-1.989 1.998-1.12 0-2.011-.879-2.011-1.998 0-1.096.892-2.002 2.011-2.002zm-81 0c1.083 0 1.989.906 1.989 2.002 0 1.12-.906 1.998-1.989 1.998-1.12 0-2.011-.879-2.011-1.998 0-1.096.892-2.002 2.011-2.002zm44.994 0c1.11 0 1.995.906 1.995 2.002 0 1.12-.885 1.998-1.995 1.998C69.907 59 69 58.121 69 57.002c0-1.096.907-2.002 2.005-2.002zm-54 0c1.098 0 1.995.906 1.995 2.002 0 1.12-.897 1.998-1.995 1.998-1.11 0-2.005-.879-2.005-1.998 0-1.096.894-2.002 2.005-2.002zm81 0c1.096 0 1.995.906 1.995 2.002 0 1.12-.9 1.998-1.995 1.998C96.897 59 96 58.121 96 57.002c0-1.096.897-2.002 2.005-2.002zM8 55c1.096 0 2 .906 2 2.002C10 58.122 9.096 59 8 59c-1.105 0-2-.879-2-1.998C6 55.906 6.895 55 8 55zm54.001 0C63.11 55 64 55.906 64 57.002c0 1.12-.89 1.998-1.999 1.998C60.905 59 60 58.121 60 57.002c0-1.096.905-2.002 2.001-2.002zm0-9C63.11 46 64 46.904 64 48.001c0 1.12-.89 1.999-1.999 1.999C60.905 50 60 49.12 60 48.001c0-1.097.905-2.001 2.001-2.001zm45.01 0c1.092 0 1.989.904 1.989 2.001 0 1.12-.897 1.999-1.989 1.999-1.12 0-2.011-.88-2.011-1.999 0-1.097.892-2.001 2.011-2.001zm-63.007 0c1.099 0 1.996.904 1.996 2.001 0 1.12-.897 1.999-1.996 1.999C42.892 50 42 49.12 42 48.001c0-1.097.892-2.001 2.004-2.001zm54 0c1.097 0 1.996.904 1.996 2.001 0 1.12-.9 1.999-1.995 1.999C96.897 50 96 49.12 96 48.001c0-1.097.897-2.001 2.005-2.001zm-9 0c1.111 0 1.996.904 1.996 2.001 0 1.12-.885 1.999-1.995 1.999C87.907 50 87 49.12 87 48.001c0-1.097.907-2.001 2.005-2.001zm-36 0c1.1 0 1.996.904 1.996 2.001 0 1.12-.897 1.999-1.995 1.999-1.11 0-2.005-.88-2.005-1.999 0-1.097.894-2.001 2.005-2.001zm18 0c1.111 0 1.996.904 1.996 2.001 0 1.12-.885 1.999-1.995 1.999C69.907 50 69 49.12 69 48.001c0-1.097.907-2.001 2.005-2.001zm-54 0c1.1 0 1.996.904 1.996 2.001 0 1.12-.897 1.999-1.995 1.999-1.11 0-2.005-.88-2.005-1.999 0-1.097.894-2.001 2.005-2.001zm18 0c1.11 0 1.996.904 1.996 2.001 0 1.12-.885 1.999-1.996 1.999C33.892 50 33 49.12 33 48.001c0-1.097.892-2.001 2.004-2.001zm-8.993 0c1.083 0 1.989.904 1.989 2.001 0 1.12-.906 1.999-1.989 1.999-1.12 0-2.011-.88-2.011-1.999 0-1.097.892-2.001 2.011-2.001zM8 46c1.096 0 2 .904 2 2.001C10 49.121 9.096 50 8 50c-1.105 0-2-.88-2-1.999C6 46.904 6.895 46 8 46zm107.998 0c1.098 0 2.002.904 2.002 2.001 0 1.12-.904 1.999-2.002 1.999-1.106 0-1.998-.88-1.998-1.999 0-1.097.892-2.001 1.998-2.001zM80 46C81.11 46 82 46.904 82 48.001c0 1.12-.89 1.999-1.999 1.999C78.905 50 78 49.12 78 48.001c0-1.097.905-2.001 2.001-2.001zm35.997-9c1.098 0 2.002.901 2.002 2.001 0 1.095-.904 1.999-2.002 1.999-1.106 0-1.998-.904-1.998-1.999 0-1.1.892-2.001 1.998-2.001zm-8.987 0c1.092 0 1.989.901 1.989 2.001 0 1.095-.897 1.999-1.989 1.999-1.12 0-2.011-.904-2.011-1.999 0-1.1.892-2.001 2.011-2.001zm-9.006 0c1.096 0 1.995.901 1.995 2.001 0 1.095-.9 1.999-1.995 1.999C96.897 41 96 40.096 96 39.001c0-1.1.897-2.001 2.005-2.001zm-9 0c1.11 0 1.995.901 1.995 2.001C91 40.096 90.115 41 89.005 41 87.907 41 87 40.096 87 39.001c0-1.1.907-2.001 2.005-2.001zM80 37C81.11 37 82 37.901 82 39.001 82 40.096 81.11 41 80.001 41 78.905 41 78 40.096 78 39.001c0-1.1.905-2.001 2.001-2.001zm-8.996 0c1.11 0 1.995.901 1.995 2.001C73 40.096 72.115 41 71.005 41 69.907 41 69 40.096 69 39.001c0-1.1.907-2.001 2.005-2.001zM62 37C63.11 37 64 37.901 64 39.001 64 40.096 63.11 41 62.001 41 60.905 41 60 40.096 60 39.001c0-1.1.905-2.001 2.001-2.001zm-8.996 0c1.098 0 1.995.901 1.995 2.001C55 40.096 54.103 41 53.005 41 51.895 41 51 40.096 51 39.001c0-1.1.894-2.001 2.005-2.001zm-9.001 0c1.099 0 1.996.901 1.996 2.001C46 40.096 45.103 41 44.004 41 42.892 41 42 40.096 42 39.001c0-1.1.892-2.001 2.004-2.001zm-9 0c1.11 0 1.996.901 1.996 2.001C37 40.096 36.115 41 35.004 41 33.892 41 33 40.096 33 39.001c0-1.1.892-2.001 2.004-2.001zm-8.993 0c1.083 0 1.989.901 1.989 2.001C28 40.096 27.094 41 26.011 41 24.891 41 24 40.096 24 39.001c0-1.1.892-2.001 2.011-2.001zm-9.006 0c1.098 0 1.995.901 1.995 2.001C19 40.096 18.103 41 17.005 41 15.895 41 15 40.096 15 39.001c0-1.1.894-2.001 2.005-2.001zM8 37c1.096 0 2 .901 2 2.001C10 40.096 9.096 41 8 41c-1.105 0-2-.904-2-1.999C6 37.901 6.895 37 8 37zm99.011-9c1.092 0 1.989.887 1.989 1.99 0 1.126-.897 2.01-1.989 2.01-1.12 0-2.011-.884-2.011-2.01 0-1.103.892-1.99 2.011-1.99zm8.987 0c1.098 0 2.002.887 2.002 1.99 0 1.126-.904 2.01-2.002 2.01-1.106 0-1.998-.884-1.998-2.01 0-1.103.892-1.99 1.998-1.99zM62 28C63.11 28 64 28.887 64 29.99c0 1.126-.89 2.01-1.999 2.01C60.905 32 60 31.116 60 29.99c0-1.103.905-1.99 2.001-1.99zm-44.996 0c1.098 0 1.995.887 1.995 1.99 0 1.126-.897 2.01-1.995 2.01-1.11 0-2.005-.884-2.005-2.01 0-1.103.894-1.99 2.005-1.99zM80 28C81.11 28 82 28.887 82 29.99c0 1.126-.89 2.01-1.999 2.01C78.905 32 78 31.116 78 29.99c0-1.103.905-1.99 2.001-1.99zm9.004 0c1.11 0 1.995.887 1.995 1.99 0 1.126-.885 2.01-1.995 2.01C87.907 32 87 31.116 87 29.99c0-1.103.907-1.99 2.005-1.99zm-54.001 0c1.11 0 1.996.887 1.996 1.99 0 1.126-.885 2.01-1.996 2.01C33.892 32 33 31.116 33 29.99c0-1.103.892-1.99 2.004-1.99zm63 0c1.097 0 1.996.887 1.996 1.99 0 1.126-.9 2.01-1.995 2.01C96.897 32 96 31.116 96 29.99c0-1.103.897-1.99 2.005-1.99zM8 28c1.096 0 2 .887 2 1.99C10 31.116 9.096 32 8 32c-1.105 0-2-.884-2-2.01C6 28.887 6.895 28 8 28zm18.011 0c1.083 0 1.989.887 1.989 1.99 0 1.126-.906 2.01-1.989 2.01-1.12 0-2.011-.884-2.011-2.01 0-1.103.892-1.99 2.011-1.99zm26.994 0c1.098 0 1.995.887 1.995 1.99 0 1.126-.897 2.01-1.995 2.01-1.11 0-2.005-.884-2.005-2.01 0-1.103.894-1.99 2.005-1.99zm-9.001 0c1.099 0 1.996.887 1.996 1.99 0 1.126-.897 2.01-1.996 2.01C42.892 32 42 31.116 42 29.99c0-1.103.892-1.99 2.004-1.99zm27 0c1.111 0 1.996.887 1.996 1.99 0 1.126-.885 2.01-1.995 2.01C69.907 32 69 31.116 69 29.99c0-1.103.907-1.99 2.005-1.99zm36.007-9c1.092 0 1.989.903 1.989 2 0 1.119-.897 2-1.989 2-1.12 0-2.011-.881-2.011-2 0-1.097.892-2 2.011-2zm-18.006 0c1.11 0 1.995.903 1.995 2 0 1.119-.885 2-1.995 2C87.907 23 87 22.119 87 21c0-1.097.907-2 2.005-2zm26.993 0c1.098 0 2.002.903 2.002 2 0 1.119-.904 2-2.002 2-1.106 0-1.998-.881-1.998-2 0-1.097.892-2 1.998-2zm-98.993 0c1.098 0 1.995.903 1.995 2 0 1.119-.897 2-1.995 2-1.11 0-2.005-.881-2.005-2 0-1.097.894-2 2.005-2zM80 19C81.11 19 82 19.903 82 21c0 1.119-.89 2-1.999 2C78.905 23 78 22.119 78 21c0-1.097.905-2 2.001-2zm18.004 0c1.096 0 1.995.903 1.995 2 0 1.119-.9 2-1.995 2C96.897 23 96 22.119 96 21c0-1.097.897-2 2.005-2zm-63.001 0c1.11 0 1.996.903 1.996 2 0 1.119-.885 2-1.996 2C33.892 23 33 22.119 33 21c0-1.097.892-2 2.004-2zm9 0c1.099 0 1.996.903 1.996 2 0 1.119-.897 2-1.996 2C42.892 23 42 22.119 42 21c0-1.097.892-2 2.004-2zM8 19c1.096 0 2 .903 2 2 0 1.119-.904 2-2 2-1.105 0-2-.881-2-2 0-1.097.895-2 2-2zm54.001 0C63.11 19 64 19.903 64 21c0 1.119-.89 2-1.999 2C60.905 23 60 22.119 60 21c0-1.097.905-2 2.001-2zm-35.99 0c1.083 0 1.989.903 1.989 2 0 1.119-.906 2-1.989 2-1.12 0-2.011-.881-2.011-2 0-1.097.892-2 2.011-2zm44.994 0c1.11 0 1.995.903 1.995 2 0 1.119-.885 2-1.995 2C69.907 23 69 22.119 69 21c0-1.097.907-2 2.005-2zm-18 0c1.098 0 1.995.903 1.995 2 0 1.119-.897 2-1.995 2-1.11 0-2.005-.881-2.005-2 0-1.097.894-2 2.005-2zm62.993-9c1.098 0 2.002.884 2.002 2.002 0 1.095-.904 1.998-2.002 1.998-1.106 0-1.998-.903-1.998-1.998 0-1.118.892-2.002 1.998-2.002zm-62.993 0c1.098 0 1.995.884 1.995 2.002C55 13.097 54.103 14 53.005 14 51.895 14 51 13.097 51 12.002c0-1.118.894-2.002 2.005-2.002zm54.006 0c1.092 0 1.989.884 1.989 2.002 0 1.095-.897 1.998-1.989 1.998-1.12 0-2.011-.903-2.011-1.998 0-1.118.892-2.002 2.011-2.002zm-90.006 0c1.098 0 1.995.884 1.995 2.002C19 13.097 18.103 14 17.005 14 15.895 14 15 13.097 15 12.002c0-1.118.894-2.002 2.005-2.002zm17.999 0c1.11 0 1.996.884 1.996 2.002C37 13.097 36.115 14 35.004 14 33.892 14 33 13.097 33 12.002c0-1.118.892-2.002 2.004-2.002zm63 0c1.097 0 1.996.884 1.996 2.002 0 1.095-.9 1.998-1.995 1.998C96.897 14 96 13.097 96 12.002c0-1.118.897-2.002 2.005-2.002zm-9 0c1.111 0 1.996.884 1.996 2.002C91 13.097 90.115 14 89.005 14 87.907 14 87 13.097 87 12.002c0-1.118.907-2.002 2.005-2.002zm-9.003 0C81.11 10 82 10.884 82 12.002 82 13.097 81.11 14 80.001 14 78.905 14 78 13.097 78 12.002c0-1.118.905-2.002 2.001-2.002zM8 10c1.096 0 2 .884 2 2.002C10 13.097 9.096 14 8 14c-1.105 0-2-.903-2-1.998C6 10.884 6.895 10 8 10zm36.004 0c1.099 0 1.996.884 1.996 2.002C46 13.097 45.103 14 44.004 14 42.892 14 42 13.097 42 12.002c0-1.118.892-2.002 2.004-2.002zM26.01 10c1.083 0 1.989.884 1.989 2.002C28 13.097 27.094 14 26.011 14 24.891 14 24 13.097 24 12.002c0-1.118.892-2.002 2.011-2.002zm44.994 0c1.11 0 1.995.884 1.995 2.002C73 13.097 72.115 14 71.005 14 69.907 14 69 13.097 69 12.002c0-1.118.907-2.002 2.005-2.002zM62 10C63.11 10 64 10.884 64 12.002 64 13.097 63.11 14 62.001 14 60.905 14 60 13.097 60 12.002c0-1.118.905-2.002 2.001-2.002zm53.997-9c1.098 0 2.002.886 2.002 1.978C118 4.097 117.096 5 115.998 5 114.892 5 114 4.097 114 2.978c0-1.092.892-1.978 1.998-1.978zm-8.987 0c1.092 0 1.989.886 1.989 1.978C109 4.097 108.103 5 107.011 5 105.891 5 105 4.097 105 2.978c0-1.092.892-1.978 2.011-1.978zm-9.006 0C99.1 1 100 1.886 100 2.978 100 4.097 99.1 5 98.005 5 96.897 5 96 4.097 96 2.978 96 1.886 96.897 1 98.005 1zm-9 0C90.115 1 91 1.886 91 2.978 91 4.097 90.115 5 89.005 5 87.907 5 87 4.097 87 2.978 87 1.886 87.907 1 89.005 1zM80 1C81.11 1 82 1.886 82 2.978 82 4.097 81.11 5 80.001 5 78.905 5 78 4.097 78 2.978 78 1.886 78.905 1 80.001 1zm-8.996 0C72.115 1 73 1.886 73 2.978 73 4.097 72.115 5 71.005 5 69.907 5 69 4.097 69 2.978 69 1.886 69.907 1 71.005 1zM62 1C63.11 1 64 1.886 64 2.978 64 4.097 63.11 5 62.001 5 60.905 5 60 4.097 60 2.978 60 1.886 60.905 1 62.001 1zm-8.996 0C54.103 1 55 1.886 55 2.978 55 4.097 54.103 5 53.005 5 51.895 5 51 4.097 51 2.978 51 1.886 51.894 1 53.005 1zm-9.001 0C45.103 1 46 1.886 46 2.978 46 4.097 45.103 5 44.004 5 42.892 5 42 4.097 42 2.978 42 1.886 42.892 1 44.004 1zm-9 0C36.114 1 37 1.886 37 2.978 37 4.097 36.115 5 35.004 5 33.892 5 33 4.097 33 2.978 33 1.886 33.892 1 35.004 1zM26.01 1C27.094 1 28 1.886 28 2.978 28 4.097 27.094 5 26.011 5 24.891 5 24 4.097 24 2.978 24 1.886 24.892 1 26.011 1zm-9.006 0C18.103 1 19 1.886 19 2.978 19 4.097 18.103 5 17.005 5 15.895 5 15 4.097 15 2.978 15 1.886 15.894 1 17.005 1zM8 1c1.096 0 2 .886 2 1.978C10 4.097 9.096 5 8 5c-1.105 0-2-.903-2-2.022C6 1.886 6.895 1 8 1z" mask="url(#prefix__h)"/>
                </g>
            </g>
        </g>
        <path fill="#FFD6E7" d="M305.626 32.589c.166-.126.39-.139.567-.038l.057.038 8.547 6.487c.226.172.27.495.098.721-.16.21-.45.263-.672.132l-.05-.034-8.235-6.25-8.227 6.25c-.166.126-.39.139-.567.038l-.057-.038-8.233-6.251-8.23 6.251c-.165.126-.388.139-.566.038l-.057-.038-8.231-6.25-8.23 6.25c-.165.126-.389.139-.566.038l-.057-.038-8.232-6.25-8.23 6.25c-.167.126-.39.139-.567.038l-.057-.038-8.232-6.25-8.229 6.25c-.166.126-.39.139-.566.038l-.058-.038-8.543-6.488c-.226-.172-.27-.494-.098-.72.16-.21.45-.263.672-.132l.05.034 8.23 6.25 8.23-6.25c.166-.126.39-.139.567-.038l.057.038 8.231 6.25 8.232-6.25c.165-.126.389-.139.566-.038l.057.038 8.231 6.25 8.23-6.25c.166-.126.389-.139.566-.038l.058.038 8.23 6.25 8.23-6.25c.166-.126.39-.139.567-.038l.057.038 8.232 6.25 8.228-6.25zm0-8.484c.166-.126.39-.139.567-.038l.057.038 8.547 6.488c.226.171.27.494.098.72-.16.21-.45.263-.672.132l-.05-.034-8.235-6.25-8.227 6.25c-.166.126-.39.139-.567.038l-.057-.038-8.233-6.25-8.23 6.25c-.165.126-.388.139-.566.038l-.057-.038-8.231-6.25-8.23 6.25c-.165.126-.389.139-.566.038l-.057-.038-8.232-6.25-8.23 6.25c-.167.126-.39.139-.567.038l-.057-.038-8.232-6.25-8.229 6.25c-.166.126-.39.139-.566.038l-.058-.038-8.543-6.487c-.226-.172-.27-.495-.098-.721.16-.21.45-.263.672-.132l.05.034 8.23 6.25 8.23-6.25c.166-.126.39-.139.567-.038l.057.038 8.231 6.25 8.232-6.25c.165-.126.389-.139.566-.038l.057.038 8.231 6.25 8.23-6.25c.166-.126.389-.139.566-.038l.058.038 8.23 6.25 8.23-6.25c.166-.126.39-.139.567-.038l.057.038 8.232 6.25 8.228-6.25z" mask="url(#prefix__c)"/>
    </g>
</svg>
