<svg xmlns="http://www.w3.org/2000/svg" xmlns:xlink="http://www.w3.org/1999/xlink" width="176" height="81" viewBox="0 0 176 81">
    <defs>
        <rect id="prefix__a" width="176" height="81" x="0" y="0" rx="8"/>
    </defs>
    <g fill="none" fill-rule="evenodd">
        <mask id="prefix__b" fill="#fff">
            <use xlink:href="#prefix__a"/>
        </mask>
        <circle cx="146.5" cy="8.5" r="120.5" fill="#F9EBF4" mask="url(#prefix__b)"/>
        <circle cx="168" cy="60" r="80" fill="#F7E5F0" mask="url(#prefix__b)"/>
        <path fill="#FBF2F7" d="M148.261 36.896l-12.54-3.642c-1.451-.415-2.462-1.763-2.462-3.26 0-1.88 1.533-3.4 3.426-3.4h7.698c1.417 0 2.81.426 3.971 1.21.708.472 1.66.357 2.264-.23l4.041-3.919c.824-.795.708-2.12-.209-2.823-2.845-2.212-6.398-3.445-10.044-3.457v-5.531c0-1.014-.836-1.844-1.858-1.844h-3.715c-1.022 0-1.858.83-1.858 1.844v5.531h-.29c-7.397 0-13.342 6.303-12.657 13.782.488 5.312 4.575 9.634 9.73 11.132l11.902 3.457c1.452.426 2.462 1.763 2.462 3.26 0 1.88-1.533 3.4-3.426 3.4h-7.698c-1.416 0-2.81-.426-3.97-1.21-.71-.472-1.661-.357-2.265.23l-4.04 3.919c-.825.795-.71 2.12.208 2.823 2.845 2.212 6.398 3.445 10.044 3.457v5.531c0 1.014.836 1.844 1.858 1.844h3.715c1.022 0 1.858-.83 1.858-1.844v-5.554c5.411-.104 10.485-3.296 12.273-8.378 2.497-7.098-1.695-14.38-8.418-16.328z" mask="url(#prefix__b)"/>
    </g>
</svg>
